{
  "route": [
    [
      -64.312652,
      -33.136842,
      0.489
    ],
    [
      -64.312503,
      -33.136477,
      0.489
    ],
    [
      -64.312485,
      -33.13639,
      0.175
    ],
    [
      -64.315388,
      -33.135715,
      4.992
    ],
    [
      -64.318755,
      -33.134953,
      4.992
    ],
    [
      -64.321502,
      -33.134315,
      4.992
    ],
    [
      -64.322985,
      -33.133975,
      4.992
    ],
    [
      -64.32312,
      -33.133943,
      4.992
    ],
    [
      -64.322642,
      -33.132628,
      0.279
    ],
    [
      -64.32285,
      -33.132578,
      4.992
    ],
    [
      -64.325803,
      -33.13191,
      4.992
    ],
    [
      -64.329088,
      -33.131173,
      4.957
    ],
    [
      -64.331442,
      -33.130628,
      4.992
    ],
    [
      -64.334462,
      -33.12993,
      4.992
    ],
    [
      -64.335775,
      -33.129655,
      4.957
    ],
    [
      -64.335975,
      -33.129455,
      5.585
    ],
    [
      -64.33754,
      -33.128288,
      5.445
    ],
    [
      -64.337903,
      -33.128567,
      3.979
    ],
    [
      -64.339755,
      -33.130312,
      3.875
    ],
    [
      -64.339972,
      -33.130095,
      5.585
    ],
    [
      -64.341642,
      -33.128792,
      5.48
    ],
    [
      -64.34316,
      -33.12756,
      5.48
    ],
    [
      -64.343243,
      -33.127408,
      5.864
    ],
    [
      -64.342747,
      -33.126027,
      0.279
    ],
    [
      -64.342672,
      -33.12579,
      0.244
    ],
    [
      -64.344538,
      -33.125373,
      4.957
    ],
    [
      -64.346092,
      -33.124998,
      4.992
    ],
    [
      -64.34846,
      -33.12442,
      4.992
    ],
    [
      -64.34883,
      -33.124277,
      5.131
    ],
    [
      -64.349198,
      -33.124287,
      4.957
    ],
    [
      -64.349422,
      -33.124143,
      4.992
    ],
    [
      -64.349802,
      -33.12413,
      4.747
    ],
    [
      -64.351505,
      -33.123695,
      5.027
    ],
    [
      -64.352735,
      -33.12339,
      4.992
    ],
    [
      -64.354715,
      -33.122935,
      4.992
    ],
    [
      -64.356525,
      -33.122532,
      4.957
    ],
    [
      -64.35847,
      -33.122047,
      4.992
    ],
    [
      -64.360333,
      -33.121637,
      4.957
    ],
    [
      -64.36332,
      -33.1209,
      4.992
    ],
    [
      -64.36399,
      -33.12072,
      5.027
    ],
    [
      -64.364085,
      -33.120443,
      6.004
    ],
    [
      -64.36439,
      -33.120253,
      5.341
    ],
    [
      -64.364705,
      -33.120267,
      4.643
    ],
    [
      -64.364972,
      -33.1204,
      4.189
    ],
    [
      -64.365217,
      -33.12046,
      4.433
    ],
    [
      -64.367907,
      -33.119903,
      4.957
    ],
    [
      -64.369153,
      -33.11968,
      4.922
    ],
    [
      -64.372102,
      -33.118995,
      4.992
    ],
    [
      -64.37229,
      -33.11889,
      5.306
    ],
    [
      -64.37138,
      -33.116377,
      0.279
    ],
    [
      -64.371578,
      -33.11634,
      4.922
    ],
    [
      -64.374217,
      -33.115708,
      4.992
    ],
    [
      -64.377655,
      -33.114885,
      4.992
    ],
    [
      -64.379243,
      -33.114487,
      4.992
    ],
    [
      -64.380487,
      -33.114185,
      4.992
    ],
    [
      -64.380998,
      -33.115342,
      3.491
    ],
    [
      -64.381218,
      -33.115245,
      5.201
    ],
    [
      -64.381485,
      -33.115137,
      5.166
    ],
    [
      -64.38181,
      -33.11527,
      4.259
    ],
    [
      -64.383363,
      -33.11492,
      4.992
    ],
    [
      -64.385695,
      -33.114332,
      4.992
    ],
    [
      -64.385992,
      -33.114253,
      4.992
    ],
    [
      -64.38621,
      -33.114147,
      5.236
    ],
    [
      -64.386628,
      -33.114022,
      5.061
    ],
    [
      -64.3884,
      -33.113648,
      4.957
    ],
    [
      -64.389142,
      -33.11363,
      4.747
    ]
  ],
  "stops": [
    {
      "code": "R026",
      "line": "50",
      "name": "T A",
      "color": "#ff0000",
      "lat": "-33.136842",
      "lon": "-64.312652",
      "stop_name": "Pirovano 110 PL",
      "curso": "0.4886921906",
      "itinerario": "S",
      "client": 98,
      "direction": "V"
    },
    {
      "code": "R025",
      "line": "50",
      "name": "T A",
      "color": "#ff0000",
      "lat": "-33.136477",
      "lon": "-64.312503",
      "stop_name": "Pirovano 105",
      "curso": "0.4886921906",
      "itinerario": "S",
      "client": 98,
      "direction": "V"
    },
    {
      "code": "R023",
      "line": "50",
      "name": "T A",
      "color": "#ff0000",
      "lat": "-33.135715",
      "lon": "-64.315388",
      "stop_name": "Entre Rios 1705",
      "curso": "4.9916416607",
      "itinerario": "S",
      "client": 98,
      "direction": "V"
    },
    {
      "code": "R021",
      "line": "50",
      "name": "T A",
      "color": "#ff0000",
      "lat": "-33.134953",
      "lon": "-64.318755",
      "stop_name": "Entre Rios 1493",
      "curso": "4.9916416607",
      "itinerario": "S",
      "client": 98,
      "direction": "V"
    },
    {
      "code": "R019",
      "line": "50",
      "name": "T A",
      "color": "#ff0000",
      "lat": "-33.134315",
      "lon": "-64.321502",
      "stop_name": " Entre Rios 1305",
      "curso": "4.9916416607",
      "itinerario": "S",
      "client": 98,
      "direction": "V"
    },
    {
      "code": "R017",
      "line": "50",
      "name": "T A",
      "color": "#ff0000",
      "lat": "-33.133975",
      "lon": "-64.322985",
      "stop_name": "Entre Rios 1205",
      "curso": "4.9916416607",
      "itinerario": "S",
      "client": 98,
      "direction": "V"
    },
    {
      "code": "R015",
      "line": "50",
      "name": "T A",
      "color": "#ff0000",
      "lat": "-33.132578",
      "lon": "-64.322850",
      "stop_name": "Luis Pasteur 1205",
      "curso": "4.9916416607",
      "itinerario": "S",
      "client": 98,
      "direction": "V"
    },
    {
      "code": "R014",
      "line": "50",
      "name": "T A",
      "color": "#ff0000",
      "lat": "-33.131910",
      "lon": "-64.325803",
      "stop_name": " Luis Pasteur 995",
      "curso": "4.9916416607",
      "itinerario": "S",
      "client": 98,
      "direction": "V"
    },
    {
      "code": "R012",
      "line": "50",
      "name": "T A",
      "color": "#ff0000",
      "lat": "-33.131173",
      "lon": "-64.329088",
      "stop_name": "Luis Pasteur 785",
      "curso": "4.9567350757",
      "itinerario": "S",
      "client": 98,
      "direction": "V"
    },
    {
      "code": "R010",
      "line": "50",
      "name": "T A",
      "color": "#ff0000",
      "lat": "-33.130628",
      "lon": "-64.331442",
      "stop_name": "Luis Pasteur 619",
      "curso": "4.9916416607",
      "itinerario": "S",
      "client": 98,
      "direction": "V"
    },
    {
      "code": "R008",
      "line": "50",
      "name": "T A",
      "color": "#ff0000",
      "lat": "-33.129930",
      "lon": "-64.334462",
      "stop_name": "Luis Pasteur 421",
      "curso": "4.9916416607",
      "itinerario": "S",
      "client": 98,
      "direction": "V"
    },
    {
      "code": "R189",
      "line": "50",
      "name": "T A",
      "color": "#ff0000",
      "lat": "-33.129455",
      "lon": "-64.335975",
      "stop_name": "Luis Pasteur 339",
      "curso": "5.5850536064",
      "itinerario": "S",
      "client": 98,
      "direction": "V"
    },
    {
      "code": "R164",
      "line": "50",
      "name": "T A",
      "color": "#ff0000",
      "lat": "-33.128567",
      "lon": "-64.337903",
      "stop_name": "Bv. Ameghino 950",
      "curso": "3.9793506945",
      "itinerario": "S",
      "client": 98,
      "direction": "V"
    },
    {
      "code": "R160",
      "line": "50",
      "name": "T A",
      "color": "#ff0000",
      "lat": "-33.128792",
      "lon": "-64.341642",
      "stop_name": "Blvd. Roca 785",
      "curso": "5.4803338513",
      "itinerario": "S",
      "client": 98,
      "direction": "V"
    },
    {
      "code": "R159",
      "line": "50",
      "name": "T A",
      "color": "#ff0000",
      "lat": "-33.127408",
      "lon": "-64.343243",
      "stop_name": "Lavalle 955 (Ferrelec)",
      "curso": "5.8643062867",
      "itinerario": "S",
      "client": 98,
      "direction": "V"
    },
    {
      "code": "R155",
      "line": "50",
      "name": "T A",
      "color": "#ff0000",
      "lat": "-33.126027",
      "lon": "-64.342747",
      "stop_name": "Lavalle 815",
      "curso": "0.2792526803",
      "itinerario": "S",
      "client": 98,
      "direction": "V"
    },
    {
      "code": "R154",
      "line": "50",
      "name": "T A",
      "color": "#ff0000",
      "lat": "-33.125373",
      "lon": "-64.344538",
      "stop_name": "Velez Sarsfield 415",
      "curso": "4.9567350757",
      "itinerario": "S",
      "client": 98,
      "direction": "V"
    },
    {
      "code": "R152",
      "line": "50",
      "name": "T A",
      "color": "#ff0000",
      "lat": "-33.124998",
      "lon": "-64.346092",
      "stop_name": "Velez Sarsfield 255",
      "curso": "4.9916416607",
      "itinerario": "S",
      "client": 98,
      "direction": "V"
    },
    {
      "code": "R063",
      "line": "50",
      "name": "T A",
      "color": "#ff0000",
      "lat": "-33.124287",
      "lon": "-64.349198",
      "stop_name": "Buenos Aires 50 PL",
      "curso": "4.9567350757",
      "itinerario": "S",
      "client": 98,
      "direction": "V"
    },
    {
      "code": "R065",
      "line": "50",
      "name": "T A",
      "color": "#ff0000",
      "lat": "-33.123695",
      "lon": "-64.351505",
      "stop_name": "Buenos Aires 290",
      "curso": "5.0265482457",
      "itinerario": "S",
      "client": 98,
      "direction": "V"
    },
    {
      "code": "R068",
      "line": "50",
      "name": "T A",
      "color": "#ff0000",
      "lat": "-33.123390",
      "lon": "-64.352735",
      "stop_name": "Buenos Aires 410",
      "curso": "4.9916416607",
      "itinerario": "S",
      "client": 98,
      "direction": "V"
    },
    {
      "code": "R070",
      "line": "50",
      "name": "T A",
      "color": "#ff0000",
      "lat": "-33.122935",
      "lon": "-64.354715",
      "stop_name": "Buenos Aires 610",
      "curso": "4.9916416607",
      "itinerario": "S",
      "client": 98,
      "direction": "V"
    },
    {
      "code": "R072",
      "line": "50",
      "name": "T A",
      "color": "#ff0000",
      "lat": "-33.122532",
      "lon": "-64.356525",
      "stop_name": " Buenos Aires 790",
      "curso": "4.9567350757",
      "itinerario": "S",
      "client": 98,
      "direction": "V"
    },
    {
      "code": "R074",
      "line": "50",
      "name": "T A",
      "color": "#ff0000",
      "lat": "-33.122047",
      "lon": "-64.358470",
      "stop_name": "Buenos Aires 990",
      "curso": "4.9916416607",
      "itinerario": "S",
      "client": 98,
      "direction": "V"
    },
    {
      "code": "R076",
      "line": "50",
      "name": "T A",
      "color": "#ff0000",
      "lat": "-33.121637",
      "lon": "-64.360333",
      "stop_name": "Buenos Aires 1110",
      "curso": "4.9567350757",
      "itinerario": "S",
      "client": 98,
      "direction": "V"
    },
    {
      "code": "R078",
      "line": "50",
      "name": "T A",
      "color": "#ff0000",
      "lat": "-33.120900",
      "lon": "-64.363320",
      "stop_name": "Buenos Aires 1310",
      "curso": "4.9916416607",
      "itinerario": "S",
      "client": 98,
      "direction": "V"
    },
    {
      "code": "R079",
      "line": "50",
      "name": "T A",
      "color": "#ff0000",
      "lat": "-33.120253",
      "lon": "-64.364390",
      "stop_name": "Buenos Aires 1390",
      "curso": "5.3407075111",
      "itinerario": "S",
      "client": 98,
      "direction": "V"
    },
    {
      "code": "R081",
      "line": "50",
      "name": "T A",
      "color": "#ff0000",
      "lat": "-33.119903",
      "lon": "-64.367907",
      "stop_name": "Buenos Aires 1610",
      "curso": "4.9567350757",
      "itinerario": "S",
      "client": 98,
      "direction": "V"
    },
    {
      "code": "R083",
      "line": "50",
      "name": "T A",
      "color": "#ff0000",
      "lat": "-33.119680",
      "lon": "-64.369153",
      "stop_name": "Buenos Aires 1690",
      "curso": "4.9218284906",
      "itinerario": "S",
      "client": 98,
      "direction": "V"
    },
    {
      "code": "R084",
      "line": "50",
      "name": "T A",
      "color": "#ff0000",
      "lat": "-33.118995",
      "lon": "-64.372102",
      "stop_name": "Buenos Aires 1890",
      "curso": "4.9916416607",
      "itinerario": "S",
      "client": 98,
      "direction": "V"
    },
    {
      "code": "R129",
      "line": "50",
      "name": "T A",
      "color": "#ff0000",
      "lat": "-33.116340",
      "lon": "-64.371578",
      "stop_name": "Gob. Guzman 1910",
      "curso": "4.9218284906",
      "itinerario": "S",
      "client": 98,
      "direction": "V"
    },
    {
      "code": "R128",
      "line": "50",
      "name": "T A",
      "color": "#ff0000",
      "lat": "-33.115708",
      "lon": "-64.374217",
      "stop_name": "Gob. Guzman 2090",
      "curso": "4.9916416607",
      "itinerario": "S",
      "client": 98,
      "direction": "V"
    },
    {
      "code": "R088",
      "line": "50",
      "name": "T A",
      "color": "#ff0000",
      "lat": "-33.114885",
      "lon": "-64.377655",
      "stop_name": " Gob. Guzman 2302",
      "curso": "4.9916416607",
      "itinerario": "S",
      "client": 98,
      "direction": "V"
    },
    {
      "code": "R089",
      "line": "50",
      "name": "T A",
      "color": "#ff0000",
      "lat": "-33.114487",
      "lon": "-64.379243",
      "stop_name": "Gob. Guzman 2420",
      "curso": "4.9916416607",
      "itinerario": "S",
      "client": 98,
      "direction": "V"
    },
    {
      "code": "R091",
      "line": "50",
      "name": "T A",
      "color": "#ff0000",
      "lat": "-33.115342",
      "lon": "-64.380998",
      "stop_name": "Rev. Padre Silvi y San Martin",
      "curso": "3.4906585040",
      "itinerario": "S",
      "client": 98,
      "direction": "V"
    },
    {
      "code": "R092",
      "line": "50",
      "name": "T A",
      "color": "#ff0000",
      "lat": "-33.114920",
      "lon": "-64.383363",
      "stop_name": "San Martin 2653",
      "curso": "4.9916416607",
      "itinerario": "S",
      "client": 98,
      "direction": "V"
    },
    {
      "code": "R096",
      "line": "50",
      "name": "T A",
      "color": "#ff0000",
      "lat": "-33.114332",
      "lon": "-64.385695",
      "stop_name": "San Martin 2790",
      "curso": "4.9916416607",
      "itinerario": "S",
      "client": 98,
      "direction": "V"
    },
    {
      "code": "R098",
      "line": "50",
      "name": "T A",
      "color": "#ff0000",
      "lat": "-33.113630",
      "lon": "-64.389142",
      "stop_name": " San Martin y Calle 9  PL",
      "curso": "4.7472955654",
      "itinerario": "S",
      "client": 98,
      "direction": "V"
    }
  ],
  "color": "#f10410",
  "direction": "V",
  "notification": "",
  "notifications": []
}