{
  "route": [
    [
      -64.358917,
      -33.165993,
      0.035
    ],
    [
      -64.358945,
      -33.163445,
      0.035
    ],
    [
      -64.35896,
      -33.160148,
      0
    ],
    [
      -64.358982,
      -33.158112,
      0
    ],
    [
      -64.35899,
      -33.156358,
      0
    ],
    [
      -64.359125,
      -33.155662,
      6.109
    ],
    [
      -64.359228,
      -33.155108,
      6.144
    ],
    [
      -64.358715,
      -33.153423,
      0.244
    ],
    [
      -64.358307,
      -33.152067,
      0.244
    ],
    [
      -64.357702,
      -33.1501,
      0.244
    ]
  ],
  "stops": [
    {
      "code": "R384",
      "line": "53",
      "name": "R P",
      "color": "#6597e6",
      "lat": "-33.165993",
      "lon": "-64.358917",
      "stop_name": "Av. Amadeo Sabattini 4320 (TOP)",
      "curso": "0.0349065850",
      "itinerario": "S",
      "client": 98,
      "direction": "V"
    },
    {
      "code": "R381",
      "line": "53",
      "name": "R P",
      "color": "#6597e6",
      "lat": "-33.163445",
      "lon": "-64.358945",
      "stop_name": "Av. Amadeo Sabatini 4235",
      "curso": "0.0349065850",
      "itinerario": "S",
      "client": 98,
      "direction": "V"
    },
    {
      "code": "R379",
      "line": "53",
      "name": "R P",
      "color": "#6597e6",
      "lat": "-33.160148",
      "lon": "-64.358960",
      "stop_name": "Av. Amadeo Sabatini 4015",
      "curso": "0.0000000000",
      "itinerario": "S",
      "client": 98,
      "direction": "V"
    },
    {
      "code": "R377",
      "line": "53",
      "name": "R P",
      "color": "#6597e6",
      "lat": "-33.158112",
      "lon": "-64.358982",
      "stop_name": "Av. Amadeo Sabatini y Ruta 8",
      "curso": "0.0000000000",
      "itinerario": "S",
      "client": 98,
      "direction": "V"
    },
    {
      "code": "R374",
      "line": "53",
      "name": "R P",
      "color": "#6597e6",
      "lat": "-33.155108",
      "lon": "-64.359228",
      "stop_name": "Av. Amadeo Sabatini 3450",
      "curso": "6.1435589670",
      "itinerario": "S",
      "client": 98,
      "direction": "V"
    },
    {
      "code": "R356",
      "line": "53",
      "name": "R P",
      "color": "#6597e6",
      "lat": "-33.150100",
      "lon": "-64.357702",
      "stop_name": " Av. Amadeo Sabatini 3085",
      "curso": "0.2443460953",
      "itinerario": "S",
      "client": 98,
      "direction": "V"
    }
  ],
  "color": "#f10410",
  "direction": "V",
  "notification": "",
  "notifications": []
}