{
  "route": [
    [
      -64.325413,
      -33.146075,
      0.244
    ],
    [
      -64.325185,
      -33.145297,
      0.244
    ],
    [
      -64.32731,
      -33.144793,
      4.992
    ],
    [
      -64.32759,
      -33.144795,
      4.712
    ],
    [
      -64.327643,
      -33.145988,
      3.176
    ],
    [
      -64.327617,
      -33.14747,
      3.142
    ],
    [
      -64.32761,
      -33.149883,
      3.142
    ],
    [
      -64.32759,
      -33.150635,
      3.107
    ],
    [
      -64.328063,
      -33.150797,
      4.328
    ],
    [
      -64.32891,
      -33.150598,
      4.992
    ],
    [
      -64.331248,
      -33.150078,
      4.957
    ],
    [
      -64.332815,
      -33.149692,
      4.992
    ],
    [
      -64.333078,
      -33.149703,
      4.643
    ],
    [
      -64.332493,
      -33.14804,
      0.279
    ],
    [
      -64.331692,
      -33.145268,
      0.244
    ],
    [
      -64.331803,
      -33.14526,
      4.817
    ],
    [
      -64.334973,
      -33.144498,
      4.992
    ],
    [
      -64.336235,
      -33.144275,
      4.922
    ],
    [
      -64.335823,
      -33.143098,
      0.279
    ],
    [
      -64.335395,
      -33.141643,
      0.244
    ],
    [
      -64.335682,
      -33.141567,
      5.027
    ],
    [
      -64.338102,
      -33.141037,
      4.957
    ],
    [
      -64.341412,
      -33.140275,
      4.992
    ],
    [
      -64.34299,
      -33.139928,
      4.957
    ],
    [
      -64.342867,
      -33.140438,
      2.932
    ],
    [
      -64.341708,
      -33.143547,
      2.827
    ],
    [
      -64.34081,
      -33.14594,
      2.827
    ],
    [
      -64.340905,
      -33.14594,
      4.712
    ],
    [
      -64.340765,
      -33.146368,
      2.862
    ],
    [
      -64.339982,
      -33.148478,
      2.827
    ],
    [
      -64.339357,
      -33.15006,
      2.827
    ],
    [
      -64.33862,
      -33.151537,
      2.758
    ],
    [
      -64.338543,
      -33.151517,
      1.257
    ],
    [
      -64.338228,
      -33.152075,
      2.688
    ],
    [
      -64.338697,
      -33.151932,
      5.061
    ],
    [
      -64.341513,
      -33.151268,
      4.992
    ],
    [
      -64.341772,
      -33.151292,
      4.608
    ],
    [
      -64.341087,
      -33.14903,
      0.244
    ],
    [
      -64.341145,
      -33.14893,
      5.829
    ],
    [
      -64.340968,
      -33.148643,
      0.489
    ],
    [
      -64.340907,
      -33.14831,
      0.14
    ],
    [
      -64.341327,
      -33.148175,
      5.096
    ],
    [
      -64.341375,
      -33.147818,
      6.178
    ],
    [
      -64.34161,
      -33.147345,
      5.899
    ],
    [
      -64.342168,
      -33.147235,
      4.957
    ],
    [
      -64.34232,
      -33.14726,
      4.503
    ],
    [
      -64.342763,
      -33.14715,
      4.992
    ],
    [
      -64.342605,
      -33.146657,
      0.279
    ],
    [
      -64.343375,
      -33.146482,
      4.992
    ],
    [
      -64.34373,
      -33.146397,
      4.992
    ],
    [
      -64.344257,
      -33.147848,
      3.421
    ],
    [
      -64.344255,
      -33.14797,
      3.142
    ],
    [
      -64.345722,
      -33.147583,
      5.027
    ],
    [
      -64.347963,
      -33.147035,
      4.992
    ],
    [
      -64.348693,
      -33.146863,
      4.992
    ],
    [
      -64.348855,
      -33.146883,
      4.573
    ],
    [
      -64.348335,
      -33.145312,
      0.279
    ],
    [
      -64.348032,
      -33.144315,
      0.244
    ],
    [
      -64.347717,
      -33.144223,
      1.222
    ],
    [
      -64.346863,
      -33.141658,
      0.279
    ],
    [
      -64.346167,
      -33.139493,
      0.279
    ],
    [
      -64.345453,
      -33.137238,
      0.244
    ],
    [
      -64.34529,
      -33.13667,
      0.244
    ],
    [
      -64.346118,
      -33.136523,
      4.922
    ],
    [
      -64.345818,
      -33.13563,
      0.279
    ],
    [
      -64.345785,
      -33.135445,
      0.14
    ],
    [
      -64.345965,
      -33.135448,
      4.677
    ],
    [
      -64.34533,
      -33.133662,
      0.279
    ],
    [
      -64.344907,
      -33.132405,
      0.279
    ],
    [
      -64.34408,
      -33.13001,
      0.279
    ],
    [
      -64.343243,
      -33.127408,
      0.279
    ],
    [
      -64.342747,
      -33.126027,
      0.279
    ],
    [
      -64.34268,
      -33.125772,
      0.209
    ],
    [
      -64.344538,
      -33.125373,
      4.957
    ],
    [
      -64.346092,
      -33.124998,
      4.992
    ],
    [
      -64.349198,
      -33.124287,
      4.992
    ],
    [
      -64.349698,
      -33.124115,
      5.096
    ],
    [
      -64.3506,
      -33.123955,
      4.922
    ],
    [
      -64.350482,
      -33.123567,
      0.244
    ],
    [
      -64.350277,
      -33.12283,
      0.244
    ],
    [
      -64.348835,
      -33.12315,
      1.815
    ]
  ],
  "stops": [
    {
      "code": "R455",
      "line": "43",
      "name": "R F",
      "color": "#6597e6",
      "lat": "-33.146075",
      "lon": "-64.325413",
      "stop_name": "J.V. Gonzales 1055 PL",
      "curso": "0.2443460953",
      "itinerario": "S",
      "client": 98,
      "direction": "V"
    },
    {
      "code": "R452",
      "line": "43",
      "name": "R F",
      "color": "#6597e6",
      "lat": "-33.144793",
      "lon": "-64.327310",
      "stop_name": "Catamarca 1165",
      "curso": "4.9916416607",
      "itinerario": "S",
      "client": 98,
      "direction": "V"
    },
    {
      "code": "R453",
      "line": "43",
      "name": "R F",
      "color": "#6597e6",
      "lat": "-33.145988",
      "lon": "-64.327643",
      "stop_name": "Malabia 1090",
      "curso": "3.1764992386",
      "itinerario": "S",
      "client": 98,
      "direction": "V"
    },
    {
      "code": "R456",
      "line": "43",
      "name": "R F",
      "color": "#6597e6",
      "lat": "-33.147470",
      "lon": "-64.327617",
      "stop_name": " Malabia 1196",
      "curso": "3.1415926536",
      "itinerario": "S",
      "client": 98,
      "direction": "V"
    },
    {
      "code": "R460",
      "line": "43",
      "name": "R F",
      "color": "#6597e6",
      "lat": "-33.150598",
      "lon": "-64.328910",
      "stop_name": "Bv. Kennedy 1195",
      "curso": "4.9916416607",
      "itinerario": "S",
      "client": 98,
      "direction": "V"
    },
    {
      "code": "R459",
      "line": "43",
      "name": "R F",
      "color": "#6597e6",
      "lat": "-33.150078",
      "lon": "-64.331248",
      "stop_name": "Bv. Kennedy 1005",
      "curso": "4.9567350757",
      "itinerario": "S",
      "client": 98,
      "direction": "V"
    },
    {
      "code": "R458",
      "line": "43",
      "name": "R F",
      "color": "#6597e6",
      "lat": "-33.149692",
      "lon": "-64.332815",
      "stop_name": "Bv. Kennedy 905",
      "curso": "4.9916416607",
      "itinerario": "S",
      "client": 98,
      "direction": "V"
    },
    {
      "code": "R457",
      "line": "43",
      "name": "R F",
      "color": "#6597e6",
      "lat": "-33.148040",
      "lon": "-64.332493",
      "stop_name": "Yapeyu 1305",
      "curso": "0.2792526803",
      "itinerario": "S",
      "client": 98,
      "direction": "V"
    },
    {
      "code": "R450",
      "line": "43",
      "name": "R F",
      "color": "#6597e6",
      "lat": "-33.145260",
      "lon": "-64.331803",
      "stop_name": "Adelia Maria 890",
      "curso": "4.8171087355",
      "itinerario": "S",
      "client": 98,
      "direction": "V"
    },
    {
      "code": "R445",
      "line": "43",
      "name": "R F",
      "color": "#6597e6",
      "lat": "-33.144498",
      "lon": "-64.334973",
      "stop_name": "Adelia Maria 675",
      "curso": "4.9916416607",
      "itinerario": "S",
      "client": 98,
      "direction": "V"
    },
    {
      "code": "R443",
      "line": "43",
      "name": "R F",
      "color": "#6597e6",
      "lat": "-33.143098",
      "lon": "-64.335823",
      "stop_name": " Montevideo 1005",
      "curso": "0.2792526803",
      "itinerario": "S",
      "client": 98,
      "direction": "V"
    },
    {
      "code": "R441",
      "line": "43",
      "name": "R F",
      "color": "#6597e6",
      "lat": "-33.141567",
      "lon": "-64.335682",
      "stop_name": " Salta 595",
      "curso": "5.0265482457",
      "itinerario": "S",
      "client": 98,
      "direction": "V"
    },
    {
      "code": "R440",
      "line": "43",
      "name": "R F",
      "color": "#6597e6",
      "lat": "-33.141037",
      "lon": "-64.338102",
      "stop_name": "  Salta 421",
      "curso": "4.9567350757",
      "itinerario": "S",
      "client": 98,
      "direction": "V"
    },
    {
      "code": "R437",
      "line": "43",
      "name": "R F",
      "color": "#6597e6",
      "lat": "-33.140275",
      "lon": "-64.341412",
      "stop_name": " Salta 225",
      "curso": "4.9916416607",
      "itinerario": "S",
      "client": 98,
      "direction": "V"
    },
    {
      "code": "R410",
      "line": "43",
      "name": "R F",
      "color": "#6597e6",
      "lat": "-33.140438",
      "lon": "-64.342867",
      "stop_name": " Colombres 910",
      "curso": "2.9321531434",
      "itinerario": "S",
      "client": 98,
      "direction": "V"
    },
    {
      "code": "R447",
      "line": "43",
      "name": "R F",
      "color": "#6597e6",
      "lat": "-33.143547",
      "lon": "-64.341708",
      "stop_name": "Colombres 1090",
      "curso": "2.8274333882",
      "itinerario": "S",
      "client": 98,
      "direction": "V"
    },
    {
      "code": "R408",
      "line": "43",
      "name": "R F",
      "color": "#6597e6",
      "lat": "-33.146368",
      "lon": "-64.340765",
      "stop_name": "Colombres 1310",
      "curso": "2.8623399733",
      "itinerario": "S",
      "client": 98,
      "direction": "V"
    },
    {
      "code": "R405",
      "line": "43",
      "name": "R F",
      "color": "#6597e6",
      "lat": "-33.148478",
      "lon": "-64.339982",
      "stop_name": "Colombres y Salamanca",
      "curso": "2.8274333882",
      "itinerario": "S",
      "client": 98,
      "direction": "V"
    },
    {
      "code": "R433",
      "line": "43",
      "name": "R F",
      "color": "#6597e6",
      "lat": "-33.151932",
      "lon": "-64.338697",
      "stop_name": " J de Dios Lopez 605",
      "curso": "5.0614548308",
      "itinerario": "S",
      "client": 98,
      "direction": "V"
    },
    {
      "code": "R428",
      "line": "43",
      "name": "R F",
      "color": "#6597e6",
      "lat": "-33.151268",
      "lon": "-64.341513",
      "stop_name": "J de Dios Lopez 405",
      "curso": "4.9916416607",
      "itinerario": "S",
      "client": 98,
      "direction": "V"
    },
    {
      "code": "R404",
      "line": "43",
      "name": "R F",
      "color": "#6597e6",
      "lat": "-33.148643",
      "lon": "-64.340968",
      "stop_name": "Alem 1515",
      "curso": "0.4886921906",
      "itinerario": "S",
      "client": 98,
      "direction": "V"
    },
    {
      "code": "R402",
      "line": "43",
      "name": "R F",
      "color": "#6597e6",
      "lat": "-33.147818",
      "lon": "-64.341375",
      "stop_name": "Pje. Caracas 1455 IPV",
      "curso": "6.1784655521",
      "itinerario": "S",
      "client": 98,
      "direction": "V"
    },
    {
      "code": "R400",
      "line": "43",
      "name": "R F",
      "color": "#6597e6",
      "lat": "-33.146482",
      "lon": "-64.343375",
      "stop_name": "Kantuta 445",
      "curso": "4.9916416607",
      "itinerario": "S",
      "client": 98,
      "direction": "V"
    },
    {
      "code": "R397",
      "line": "43",
      "name": "R F",
      "color": "#6597e6",
      "lat": "-33.147848",
      "lon": "-64.344257",
      "stop_name": "Pje. Azopardo 1490",
      "curso": "3.4208453339",
      "itinerario": "S",
      "client": 98,
      "direction": "V"
    },
    {
      "code": "R395",
      "line": "43",
      "name": "R F",
      "color": "#6597e6",
      "lat": "-33.147583",
      "lon": "-64.345722",
      "stop_name": "Patricias Mendocinas 85",
      "curso": "5.0265482457",
      "itinerario": "N",
      "client": 98,
      "direction": "V"
    },
    {
      "code": "R425",
      "line": "43",
      "name": "R F",
      "color": "#6597e6",
      "lat": "-33.147035",
      "lon": "-64.347963",
      "stop_name": "Martin de Alva 465",
      "curso": "4.9916416607",
      "itinerario": "N",
      "client": 98,
      "direction": "V"
    },
    {
      "code": "R423",
      "line": "43",
      "name": "R F",
      "color": "#6597e6",
      "lat": "-33.146863",
      "lon": "-64.348693",
      "stop_name": "Martin de Alva 375",
      "curso": "4.9916416607",
      "itinerario": "S",
      "client": 98,
      "direction": "V"
    },
    {
      "code": "R418",
      "line": "43",
      "name": "R F",
      "color": "#6597e6",
      "lat": "-33.144223",
      "lon": "-64.347717",
      "stop_name": " San Lorenzo 2485",
      "curso": "1.2217304764",
      "itinerario": "S",
      "client": 98,
      "direction": "V"
    },
    {
      "code": "R415",
      "line": "43",
      "name": "R F",
      "color": "#6597e6",
      "lat": "-33.141658",
      "lon": "-64.346863",
      "stop_name": "San Lorenzo 2291",
      "curso": "0.2792526803",
      "itinerario": "S",
      "client": 98,
      "direction": "V"
    },
    {
      "code": "R413",
      "line": "43",
      "name": "R F",
      "color": "#6597e6",
      "lat": "-33.139493",
      "lon": "-64.346167",
      "stop_name": "San Lorenzo 2215",
      "curso": "0.2792526803",
      "itinerario": "S",
      "client": 98,
      "direction": "V"
    },
    {
      "code": "R421",
      "line": "43",
      "name": "R F",
      "color": "#6597e6",
      "lat": "-33.137238",
      "lon": "-64.345453",
      "stop_name": "San Lorenzo 1945",
      "curso": "0.2443460953",
      "itinerario": "S",
      "client": 98,
      "direction": "V"
    },
    {
      "code": "R185",
      "line": "43",
      "name": "R F",
      "color": "#6597e6",
      "lat": "-33.135630",
      "lon": "-64.345818",
      "stop_name": "Lavalle 1815",
      "curso": "0.2792526803",
      "itinerario": "S",
      "client": 98,
      "direction": "V"
    },
    {
      "code": "R182",
      "line": "43",
      "name": "R F",
      "color": "#6597e6",
      "lat": "-33.133662",
      "lon": "-64.345330",
      "stop_name": " Lavalle 1585",
      "curso": "0.2792526803",
      "itinerario": "S",
      "client": 98,
      "direction": "V"
    },
    {
      "code": "R179",
      "line": "43",
      "name": "R F",
      "color": "#6597e6",
      "lat": "-33.132405",
      "lon": "-64.344907",
      "stop_name": "Lavalle 1415",
      "curso": "0.2792526803",
      "itinerario": "S",
      "client": 98,
      "direction": "V"
    },
    {
      "code": "R169",
      "line": "43",
      "name": "R F",
      "color": "#6597e6",
      "lat": "-33.130010",
      "lon": "-64.344080",
      "stop_name": "Lavalle 1195",
      "curso": "0.2792526803",
      "itinerario": "S",
      "client": 98,
      "direction": "V"
    },
    {
      "code": "R159",
      "line": "43",
      "name": "R F",
      "color": "#6597e6",
      "lat": "-33.127408",
      "lon": "-64.343243",
      "stop_name": "Lavalle 955 (Ferrelec)",
      "curso": "0.2792526803",
      "itinerario": "S",
      "client": 98,
      "direction": "V"
    },
    {
      "code": "R155",
      "line": "43",
      "name": "R F",
      "color": "#6597e6",
      "lat": "-33.126027",
      "lon": "-64.342747",
      "stop_name": "Lavalle 815",
      "curso": "0.2792526803",
      "itinerario": "S",
      "client": 98,
      "direction": "V"
    },
    {
      "code": "R154",
      "line": "43",
      "name": "R F",
      "color": "#6597e6",
      "lat": "-33.125373",
      "lon": "-64.344538",
      "stop_name": "Velez Sarsfield 415",
      "curso": "4.9567350757",
      "itinerario": "S",
      "client": 98,
      "direction": "V"
    },
    {
      "code": "R152",
      "line": "43",
      "name": "R F",
      "color": "#6597e6",
      "lat": "-33.124998",
      "lon": "-64.346092",
      "stop_name": "Velez Sarsfield 255",
      "curso": "4.9916416607",
      "itinerario": "S",
      "client": 98,
      "direction": "V"
    },
    {
      "code": "R063",
      "line": "43",
      "name": "R F",
      "color": "#6597e6",
      "lat": "-33.124287",
      "lon": "-64.349198",
      "stop_name": "Buenos Aires 50 PL",
      "curso": "4.9916416607",
      "itinerario": "N",
      "client": 98,
      "direction": "V"
    },
    {
      "code": "R064",
      "line": "43",
      "name": "R F",
      "color": "#6597e6",
      "lat": "-33.123567",
      "lon": "-64.350482",
      "stop_name": "Alvear 755",
      "curso": "0.2443460953",
      "itinerario": "S",
      "client": 98,
      "direction": "V"
    },
    {
      "code": "R062",
      "line": "43",
      "name": "R F",
      "color": "#6597e6",
      "lat": "-33.123150",
      "lon": "-64.348835",
      "stop_name": "San Martin 45 PL",
      "curso": "1.8151424221",
      "itinerario": "S",
      "client": 98,
      "direction": "V"
    }
  ],
  "color": "#f10410",
  "direction": "V",
  "notification": "",
  "notifications": []
}