{
  "route": [
    [
      -64.348835,
      -33.12315,
      2.199
    ],
    [
      -64.348365,
      -33.12344,
      2.199
    ],
    [
      -64.347892,
      -33.121843,
      0.244
    ],
    [
      -64.347342,
      -33.119995,
      0.244
    ],
    [
      -64.346995,
      -33.118992,
      0.279
    ],
    [
      -64.34792,
      -33.118813,
      4.957
    ],
    [
      -64.34766,
      -33.11807,
      0.279
    ],
    [
      -64.34753,
      -33.117777,
      0.349
    ],
    [
      -64.347395,
      -33.11722,
      0.209
    ],
    [
      -64.347042,
      -33.11704,
      1.012
    ],
    [
      -64.34703,
      -33.11677,
      0.035
    ],
    [
      -64.34717,
      -33.11654,
      5.794
    ],
    [
      -64.347025,
      -33.116012,
      0.209
    ],
    [
      -64.346868,
      -33.115298,
      0.175
    ],
    [
      -64.346603,
      -33.114525,
      0.279
    ],
    [
      -64.346395,
      -33.11377,
      0.244
    ],
    [
      -64.346125,
      -33.11345,
      0.628
    ],
    [
      -64.343508,
      -33.11164,
      0.873
    ],
    [
      -64.342608,
      -33.11101,
      0.873
    ],
    [
      -64.341682,
      -33.11033,
      0.838
    ],
    [
      -64.34077,
      -33.10942,
      0.698
    ],
    [
      -64.340043,
      -33.109972,
      2.304
    ],
    [
      -64.33942,
      -33.110462,
      2.339
    ],
    [
      -64.338133,
      -33.111442,
      2.304
    ],
    [
      -64.33771,
      -33.111755,
      2.304
    ],
    [
      -64.335783,
      -33.113202,
      2.304
    ],
    [
      -64.334867,
      -33.11395,
      2.339
    ],
    [
      -64.333722,
      -33.11481,
      2.304
    ],
    [
      -64.332395,
      -33.11583,
      2.304
    ],
    [
      -64.331907,
      -33.115417,
      0.768
    ],
    [
      -64.330965,
      -33.11453,
      0.733
    ],
    [
      -64.329215,
      -33.112997,
      0.768
    ],
    [
      -64.327067,
      -33.110993,
      0.733
    ],
    [
      -64.325152,
      -33.109205,
      0.733
    ],
    [
      -64.32274,
      -33.106983,
      0.733
    ],
    [
      -64.319535,
      -33.103507,
      0.663
    ],
    [
      -64.31721,
      -33.101832,
      0.873
    ],
    [
      -64.31658,
      -33.101223,
      0.733
    ],
    [
      -64.315972,
      -33.10063,
      0.698
    ],
    [
      -64.315253,
      -33.099982,
      0.733
    ],
    [
      -64.314875,
      -33.099645,
      0.768
    ],
    [
      -64.313995,
      -33.100335,
      2.339
    ],
    [
      -64.312928,
      -33.101195,
      2.339
    ],
    [
      -64.31207,
      -33.102042,
      2.443
    ],
    [
      -64.31174,
      -33.102632,
      2.688
    ],
    [
      -64.311345,
      -33.103155,
      2.583
    ],
    [
      -64.310653,
      -33.104095,
      2.583
    ],
    [
      -64.310415,
      -33.104438,
      2.618
    ],
    [
      -64.310365,
      -33.104815,
      3.037
    ],
    [
      -64.31023,
      -33.10511,
      2.793
    ],
    [
      -64.309527,
      -33.105378,
      1.99
    ],
    [
      -64.308755,
      -33.105693,
      2.025
    ],
    [
      -64.306928,
      -33.106465,
      2.025
    ],
    [
      -64.30558,
      -33.106985,
      1.99
    ],
    [
      -64.305895,
      -33.10717,
      4.119
    ],
    [
      -64.305975,
      -33.10737,
      3.456
    ],
    [
      -64.305588,
      -33.107415,
      1.71
    ],
    [
      -64.305228,
      -33.107557,
      1.99
    ],
    [
      -64.30479,
      -33.107662,
      1.85
    ],
    [
      -64.30425,
      -33.107947,
      2.129
    ],
    [
      -64.303865,
      -33.108035,
      1.85
    ],
    [
      -64.303588,
      -33.108163,
      2.094
    ],
    [
      -64.303303,
      -33.10827,
      1.99
    ]
  ],
  "stops": [
    {
      "code": "R062",
      "line": "45",
      "name": "R I",
      "color": "#6597e6",
      "lat": "-33.123150",
      "lon": "-64.348835",
      "stop_name": "San Martin 45 PL",
      "curso": "2.1991148575",
      "itinerario": "S",
      "client": 98,
      "direction": "I"
    },
    {
      "code": "R220",
      "line": "45",
      "name": "R I",
      "color": "#6597e6",
      "lat": "-33.121843",
      "lon": "-64.347892",
      "stop_name": "Sobremonte 515",
      "curso": "0.2443460953",
      "itinerario": "S",
      "client": 98,
      "direction": "I"
    },
    {
      "code": "R470",
      "line": "45",
      "name": "R I",
      "color": "#6597e6",
      "lat": "-33.119995",
      "lon": "-64.347342",
      "stop_name": "Sobremonte 315",
      "curso": "0.2443460953",
      "itinerario": "S",
      "client": 98,
      "direction": "I"
    },
    {
      "code": "R227",
      "line": "45",
      "name": "R I",
      "color": "#6597e6",
      "lat": "-33.117777",
      "lon": "-64.347530",
      "stop_name": "Av. Espana 120",
      "curso": "0.3490658504",
      "itinerario": "S",
      "client": 98,
      "direction": "I"
    },
    {
      "code": "R229",
      "line": "45",
      "name": "R I",
      "color": "#6597e6",
      "lat": "-33.116012",
      "lon": "-64.347025",
      "stop_name": "Av. Espana 300",
      "curso": "0.2094395102",
      "itinerario": "S",
      "client": 98,
      "direction": "I"
    },
    {
      "code": "R605",
      "line": "45",
      "name": "R I",
      "color": "#6597e6",
      "lat": "-33.110330",
      "lon": "-64.341682",
      "stop_name": "MT de Alvear 310",
      "curso": "0.8377580410",
      "itinerario": "S",
      "client": 98,
      "direction": "I"
    },
    {
      "code": "R607",
      "line": "45",
      "name": "R I",
      "color": "#6597e6",
      "lat": "-33.109972",
      "lon": "-64.340043",
      "stop_name": "Chile 50",
      "curso": "2.3038346126",
      "itinerario": "S",
      "client": 98,
      "direction": "I"
    },
    {
      "code": "R562",
      "line": "45",
      "name": "R I",
      "color": "#6597e6",
      "lat": "-33.111442",
      "lon": "-64.338133",
      "stop_name": "Chile 210",
      "curso": "2.3038346126",
      "itinerario": "S",
      "client": 98,
      "direction": "I"
    },
    {
      "code": "R563",
      "line": "45",
      "name": "R I",
      "color": "#6597e6",
      "lat": "-33.113202",
      "lon": "-64.335783",
      "stop_name": "Chile 410",
      "curso": "2.3038346126",
      "itinerario": "S",
      "client": 98,
      "direction": "I"
    },
    {
      "code": "R565",
      "line": "45",
      "name": "R I",
      "color": "#6597e6",
      "lat": "-33.114810",
      "lon": "-64.333722",
      "stop_name": "Chile 590",
      "curso": "2.3038346126",
      "itinerario": "S",
      "client": 98,
      "direction": "I"
    },
    {
      "code": "R567",
      "line": "45",
      "name": "R I",
      "color": "#6597e6",
      "lat": "-33.115417",
      "lon": "-64.331907",
      "stop_name": "Muniz 430",
      "curso": "0.7679448709",
      "itinerario": "S",
      "client": 98,
      "direction": "I"
    },
    {
      "code": "R572",
      "line": "45",
      "name": "R I",
      "color": "#6597e6",
      "lat": "-33.112997",
      "lon": "-64.329215",
      "stop_name": "Muniz 690",
      "curso": "0.7679448709",
      "itinerario": "S",
      "client": 98,
      "direction": "I"
    },
    {
      "code": "R574",
      "line": "45",
      "name": "R I",
      "color": "#6597e6",
      "lat": "-33.110993",
      "lon": "-64.327067",
      "stop_name": "Muniz 890",
      "curso": "0.7330382858",
      "itinerario": "S",
      "client": 98,
      "direction": "I"
    },
    {
      "code": "R577",
      "line": "45",
      "name": "R I",
      "color": "#6597e6",
      "lat": "-33.109205",
      "lon": "-64.325152",
      "stop_name": "Muniz 1030",
      "curso": "0.7330382858",
      "itinerario": "S",
      "client": 98,
      "direction": "I"
    },
    {
      "code": "R578",
      "line": "45",
      "name": "R I",
      "color": "#6597e6",
      "lat": "-33.106983",
      "lon": "-64.322740",
      "stop_name": "Muniz 1290",
      "curso": "0.7330382858",
      "itinerario": "S",
      "client": 98,
      "direction": "I"
    },
    {
      "code": "R581",
      "line": "45",
      "name": "R I",
      "color": "#6597e6",
      "lat": "-33.103507",
      "lon": "-64.319535",
      "stop_name": "Cuba 685 PL",
      "curso": "0.6632251158",
      "itinerario": "N",
      "client": 98,
      "direction": "I"
    },
    {
      "code": "R571",
      "line": "45",
      "name": "R I",
      "color": "#6597e6",
      "lat": "-33.101832",
      "lon": "-64.317210",
      "stop_name": " Muniz 1790",
      "curso": "0.8726646260",
      "itinerario": "S",
      "client": 98,
      "direction": "I"
    },
    {
      "code": "R589",
      "line": "45",
      "name": "R I",
      "color": "#6597e6",
      "lat": "-33.099982",
      "lon": "-64.315253",
      "stop_name": " Muniz 1990",
      "curso": "0.7330382858",
      "itinerario": "S",
      "client": 98,
      "direction": "I"
    },
    {
      "code": "R594",
      "line": "45",
      "name": "R I",
      "color": "#6597e6",
      "lat": "-33.102632",
      "lon": "-64.311740",
      "stop_name": "Guatemala 970",
      "curso": "2.6878070481",
      "itinerario": "S",
      "client": 98,
      "direction": "I"
    },
    {
      "code": "R596",
      "line": "45",
      "name": "R I",
      "color": "#6597e6",
      "lat": "-33.104095",
      "lon": "-64.310653",
      "stop_name": "Guatemala y L. Blanca (a UNRC)",
      "curso": "2.5830872930",
      "itinerario": "S",
      "client": 98,
      "direction": "I"
    },
    {
      "code": "R522",
      "line": "45",
      "name": "R I",
      "color": "#6597e6",
      "lat": "-33.107557",
      "lon": "-64.305228",
      "stop_name": "Rotonda UNRC (a Guardia 1)",
      "curso": "1.9896753473",
      "itinerario": "S",
      "client": 98,
      "direction": "I"
    },
    {
      "code": "R525",
      "line": "45",
      "name": "R I",
      "color": "#6597e6",
      "lat": "-33.108035",
      "lon": "-64.303865",
      "stop_name": "Guardia 2 UNRC",
      "curso": "1.8500490071",
      "itinerario": "S",
      "client": 98,
      "direction": "I"
    },
    {
      "code": "R526",
      "line": "45",
      "name": "R I",
      "color": "#6597e6",
      "lat": "-33.108270",
      "lon": "-64.303303",
      "stop_name": "Guardia 1 UNRC PL",
      "curso": "1.9896753473",
      "itinerario": "S",
      "client": 98,
      "direction": "I"
    }
  ],
  "color": "#f10410",
  "direction": "I",
  "notification": "",
  "notifications": []
}