{
  "route": [
    [
      -64.294177,
      -33.085353,
      0.07
    ],
    [
      -64.293925,
      -33.08274,
      0.07
    ],
    [
      -64.289425,
      -33.08305,
      1.641
    ],
    [
      -64.289602,
      -33.084747,
      3.211
    ],
    [
      -64.29007,
      -33.088552,
      3.246
    ],
    [
      -64.289,
      -33.089835,
      2.548
    ],
    [
      -64.289242,
      -33.089968,
      4.119
    ],
    [
      -64.291865,
      -33.091657,
      4.049
    ],
    [
      -64.291963,
      -33.09259,
      3.386
    ],
    [
      -64.29227,
      -33.094857,
      3.246
    ],
    [
      -64.292838,
      -33.099047,
      3.246
    ],
    [
      -64.293202,
      -33.101822,
      3.246
    ],
    [
      -64.294405,
      -33.11127,
      3.246
    ],
    [
      -64.280798,
      -33.115985,
      1.955
    ],
    [
      -64.27953,
      -33.116533,
      2.059
    ],
    [
      -64.282185,
      -33.11548,
      5.166
    ],
    [
      -64.300505,
      -33.10918,
      5.096
    ],
    [
      -64.300627,
      -33.109405,
      3.56
    ],
    [
      -64.300842,
      -33.10948,
      4.328
    ],
    [
      -64.304263,
      -33.107863,
      5.236
    ],
    [
      -64.305408,
      -33.107377,
      5.201
    ],
    [
      -64.305935,
      -33.10717,
      5.166
    ],
    [
      -64.305998,
      -33.10734,
      3.456
    ],
    [
      -64.306037,
      -33.10764,
      3.246
    ],
    [
      -64.306178,
      -33.109565,
      3.211
    ],
    [
      -64.306377,
      -33.112523,
      3.211
    ],
    [
      -64.306457,
      -33.11371,
      3.211
    ],
    [
      -64.306435,
      -33.114085,
      3.107
    ],
    [
      -64.308635,
      -33.113963,
      4.782
    ],
    [
      -64.308887,
      -33.115962,
      3.246
    ]
  ],
  "stops": [
    {
      "code": "R499",
      "line": "40",
      "name": "R O",
      "color": "#6597e6",
      "lat": "-33.085353",
      "lon": "-64.294177",
      "stop_name": "Bolten y Mora PL",
      "curso": "0.0698131701",
      "itinerario": "S",
      "client": 98,
      "direction": "V"
    },
    {
      "code": "R496",
      "line": "40",
      "name": "R O",
      "color": "#6597e6",
      "lat": "-33.084747",
      "lon": "-64.289602",
      "stop_name": "Lavalle (N) y JM de la Sota (a Avioncitos)",
      "curso": "3.2114058237",
      "itinerario": "S",
      "client": 98,
      "direction": "V"
    },
    {
      "code": "R517",
      "line": "40",
      "name": "R O",
      "color": "#6597e6",
      "lat": "-33.089968",
      "lon": "-64.289242",
      "stop_name": "Ruta 158 y Lavalle Norte",
      "curso": "4.1189770347",
      "itinerario": "S",
      "client": 98,
      "direction": "V"
    },
    {
      "code": "R513",
      "line": "40",
      "name": "R O",
      "color": "#6597e6",
      "lat": "-33.092590",
      "lon": "-64.291963",
      "stop_name": "Ruta 158 y Congreso de Tucuman",
      "curso": "3.3859387489",
      "itinerario": "S",
      "client": 98,
      "direction": "V"
    },
    {
      "code": "R509",
      "line": "40",
      "name": "R O",
      "color": "#6597e6",
      "lat": "-33.094857",
      "lon": "-64.292270",
      "stop_name": "Congreso de Tucuman S/N",
      "curso": "3.2463124087",
      "itinerario": "S",
      "client": 98,
      "direction": "V"
    },
    {
      "code": "R503",
      "line": "40",
      "name": "R O",
      "color": "#6597e6",
      "lat": "-33.099047",
      "lon": "-64.292838",
      "stop_name": "Colegio Castagnari (a UNRC)",
      "curso": "3.2463124087",
      "itinerario": "S",
      "client": 98,
      "direction": "V"
    },
    {
      "code": "R528",
      "line": "40",
      "name": "R O",
      "color": "#6597e6",
      "lat": "-33.101822",
      "lon": "-64.293202",
      "stop_name": "Tucuman S/N (a UNRC)",
      "curso": "3.2463124087",
      "itinerario": "S",
      "client": 98,
      "direction": "V"
    },
    {
      "code": "R495",
      "line": "40",
      "name": "R O",
      "color": "#6597e6",
      "lat": "-33.116533",
      "lon": "-64.279530",
      "stop_name": "Palestro",
      "curso": "2.0594885174",
      "itinerario": "S",
      "client": 98,
      "direction": "V"
    },
    {
      "code": "R527",
      "line": "40",
      "name": "R O",
      "color": "#6597e6",
      "lat": "-33.109480",
      "lon": "-64.300842",
      "stop_name": "Parada UNRC - Ramal O",
      "curso": "4.3284165449",
      "itinerario": "S",
      "client": 98,
      "direction": "V"
    },
    {
      "code": "R524",
      "line": "40",
      "name": "R O",
      "color": "#6597e6",
      "lat": "-33.107863",
      "lon": "-64.304263",
      "stop_name": "Guardia 2 UNRC (a Centro)",
      "curso": "5.2359877560",
      "itinerario": "S",
      "client": 98,
      "direction": "V"
    },
    {
      "code": "R523",
      "line": "40",
      "name": "R O",
      "color": "#6597e6",
      "lat": "-33.107377",
      "lon": "-64.305408",
      "stop_name": "Rotonda UNRC (a Centro)",
      "curso": "5.2010811709",
      "itinerario": "S",
      "client": 98,
      "direction": "V"
    },
    {
      "code": "R546",
      "line": "40",
      "name": "R O",
      "color": "#6597e6",
      "lat": "-33.109565",
      "lon": "-64.306178",
      "stop_name": "Calle 1 210",
      "curso": "3.2114058237",
      "itinerario": "S",
      "client": 98,
      "direction": "V"
    },
    {
      "code": "R544",
      "line": "40",
      "name": "R O",
      "color": "#6597e6",
      "lat": "-33.112523",
      "lon": "-64.306377",
      "stop_name": "Calle 1 440",
      "curso": "3.2114058237",
      "itinerario": "S",
      "client": 98,
      "direction": "V"
    },
    {
      "code": "R543",
      "line": "40",
      "name": "R O",
      "color": "#6597e6",
      "lat": "-33.113710",
      "lon": "-64.306457",
      "stop_name": "Calle 1 540",
      "curso": "3.2114058237",
      "itinerario": "S",
      "client": 98,
      "direction": "V"
    },
    {
      "code": "R540",
      "line": "40",
      "name": "R O",
      "color": "#6597e6",
      "lat": "-33.113963",
      "lon": "-64.308635",
      "stop_name": " Calle 16 90",
      "curso": "4.7822021505",
      "itinerario": "S",
      "client": 98,
      "direction": "V"
    },
    {
      "code": "R539",
      "line": "40",
      "name": "R O",
      "color": "#6597e6",
      "lat": "-33.115962",
      "lon": "-64.308887",
      "stop_name": "Calle 5 695 PL",
      "curso": "3.2463124087",
      "itinerario": "S",
      "client": 98,
      "direction": "V"
    }
  ],
  "color": "#f10410",
  "direction": "V",
  "notification": "",
  "notifications": []
}