{
  "route": [
    [
      -64.303303,
      -33.10827,
      5.166
    ],
    [
      -64.303797,
      -33.108073,
      5.166
    ],
    [
      -64.304263,
      -33.107863,
      5.201
    ],
    [
      -64.305408,
      -33.107377,
      5.166
    ],
    [
      -64.30577,
      -33.10733,
      4.852
    ],
    [
      -64.305625,
      -33.106972,
      0.314
    ],
    [
      -64.305967,
      -33.106815,
      5.236
    ],
    [
      -64.3071,
      -33.106385,
      5.131
    ],
    [
      -64.30876,
      -33.105693,
      5.166
    ],
    [
      -64.309145,
      -33.10548,
      5.306
    ],
    [
      -64.30973,
      -33.104982,
      5.515
    ],
    [
      -64.310112,
      -33.104542,
      5.655
    ],
    [
      -64.31046,
      -33.10437,
      5.236
    ],
    [
      -64.310735,
      -33.103885,
      5.829
    ],
    [
      -64.311778,
      -33.102402,
      5.76
    ],
    [
      -64.312847,
      -33.101165,
      5.655
    ],
    [
      -64.314672,
      -33.09975,
      5.445
    ],
    [
      -64.314875,
      -33.099583,
      5.48
    ],
    [
      -64.315187,
      -33.099863,
      3.875
    ],
    [
      -64.316943,
      -33.101478,
      3.875
    ],
    [
      -64.318327,
      -33.102795,
      3.875
    ],
    [
      -64.319642,
      -33.104042,
      3.875
    ],
    [
      -64.322392,
      -33.10653,
      3.875
    ],
    [
      -64.323098,
      -33.10724,
      3.84
    ],
    [
      -64.32538,
      -33.109317,
      3.875
    ],
    [
      -64.325775,
      -33.10969,
      3.875
    ],
    [
      -64.326837,
      -33.110652,
      3.875
    ],
    [
      -64.328965,
      -33.112648,
      3.875
    ],
    [
      -64.331305,
      -33.114808,
      3.875
    ],
    [
      -64.332067,
      -33.114235,
      5.445
    ],
    [
      -64.332533,
      -33.11386,
      5.48
    ],
    [
      -64.333517,
      -33.11481,
      3.84
    ],
    [
      -64.334727,
      -33.115852,
      3.91
    ],
    [
      -64.333732,
      -33.116632,
      2.304
    ],
    [
      -64.333532,
      -33.11674,
      2.164
    ],
    [
      -64.335075,
      -33.118137,
      3.875
    ],
    [
      -64.337372,
      -33.120198,
      3.91
    ],
    [
      -64.33771,
      -33.12005,
      5.201
    ],
    [
      -64.338027,
      -33.11988,
      5.271
    ],
    [
      -64.338407,
      -33.12015,
      4.014
    ],
    [
      -64.338305,
      -33.120562,
      2.932
    ],
    [
      -64.33768,
      -33.1205,
      1.466
    ],
    [
      -64.337227,
      -33.12059,
      1.815
    ],
    [
      -64.336465,
      -33.120797,
      1.885
    ],
    [
      -64.335137,
      -33.122033,
      2.409
    ],
    [
      -64.335012,
      -33.122145,
      2.409
    ],
    [
      -64.335417,
      -33.123372,
      3.421
    ],
    [
      -64.335463,
      -33.123487,
      3.491
    ],
    [
      -64.33816,
      -33.122883,
      4.992
    ],
    [
      -64.339345,
      -33.122605,
      4.992
    ],
    [
      -64.341342,
      -33.122145,
      4.992
    ],
    [
      -64.34138,
      -33.12193,
      6.144
    ],
    [
      -64.340933,
      -33.1206,
      0.279
    ],
    [
      -64.340922,
      -33.120398,
      0.035
    ],
    [
      -64.343108,
      -33.119922,
      4.957
    ],
    [
      -64.343912,
      -33.119735,
      4.992
    ],
    [
      -64.34426,
      -33.120813,
      3.421
    ],
    [
      -64.34445,
      -33.121425,
      3.386
    ],
    [
      -64.344702,
      -33.122153,
      3.421
    ],
    [
      -64.345277,
      -33.123933,
      3.421
    ],
    [
      -64.345657,
      -33.125055,
      3.421
    ],
    [
      -64.346092,
      -33.124998,
      4.887
    ],
    [
      -64.348642,
      -33.124395,
      4.992
    ],
    [
      -64.349198,
      -33.124287,
      4.957
    ],
    [
      -64.34963,
      -33.124115,
      5.166
    ],
    [
      -64.34991,
      -33.124077,
      4.852
    ],
    [
      -64.35058,
      -33.123935,
      4.957
    ],
    [
      -64.350482,
      -33.123567,
      0.209
    ],
    [
      -64.350233,
      -33.122855,
      0.279
    ],
    [
      -64.349455,
      -33.123082,
      1.92
    ],
    [
      -64.348835,
      -33.12315,
      1.71
    ]
  ],
  "stops": [
    {
      "code": "R526",
      "line": "36",
      "name": "R L",
      "color": "#6597e6",
      "lat": "-33.108270",
      "lon": "-64.303303",
      "stop_name": "Guardia 1 UNRC PL",
      "curso": "5.1661745859",
      "itinerario": "S",
      "client": 98,
      "direction": "V"
    },
    {
      "code": "R524",
      "line": "36",
      "name": "R L",
      "color": "#6597e6",
      "lat": "-33.107863",
      "lon": "-64.304263",
      "stop_name": "Guardia 2 UNRC (a Centro)",
      "curso": "5.2010811709",
      "itinerario": "S",
      "client": 98,
      "direction": "V"
    },
    {
      "code": "R523",
      "line": "36",
      "name": "R L",
      "color": "#6597e6",
      "lat": "-33.107377",
      "lon": "-64.305408",
      "stop_name": "Rotonda UNRC (a Centro)",
      "curso": "5.1661745859",
      "itinerario": "S",
      "client": 98,
      "direction": "V"
    },
    {
      "code": "R521",
      "line": "36",
      "name": "R L",
      "color": "#6597e6",
      "lat": "-33.106815",
      "lon": "-64.305967",
      "stop_name": "Ruta 36 frente a Pucara",
      "curso": "5.2359877560",
      "itinerario": "S",
      "client": 98,
      "direction": "V"
    },
    {
      "code": "R595",
      "line": "36",
      "name": "R L",
      "color": "#6597e6",
      "lat": "-33.103885",
      "lon": "-64.310735",
      "stop_name": "Guatemala y L. Blanca (a Centro)",
      "curso": "5.8293997017",
      "itinerario": "S",
      "client": 98,
      "direction": "V"
    },
    {
      "code": "R593",
      "line": "36",
      "name": "R L",
      "color": "#6597e6",
      "lat": "-33.102402",
      "lon": "-64.311778",
      "stop_name": "Guatemala 965",
      "curso": "5.7595865316",
      "itinerario": "S",
      "client": 98,
      "direction": "V"
    },
    {
      "code": "R590",
      "line": "36",
      "name": "R L",
      "color": "#6597e6",
      "lat": "-33.099863",
      "lon": "-64.315187",
      "stop_name": " Muniz 1995",
      "curso": "3.8746309394",
      "itinerario": "S",
      "client": 98,
      "direction": "V"
    },
    {
      "code": "R570",
      "line": "36",
      "name": "R L",
      "color": "#6597e6",
      "lat": "-33.101478",
      "lon": "-64.316943",
      "stop_name": " Muniz 1825",
      "curso": "3.8746309394",
      "itinerario": "S",
      "client": 98,
      "direction": "V"
    },
    {
      "code": "R002",
      "line": "36",
      "name": "R L",
      "color": "#6597e6",
      "lat": "-33.104042",
      "lon": "-64.319642",
      "stop_name": "Muniz 1595",
      "curso": "3.8746309394",
      "itinerario": "S",
      "client": 98,
      "direction": "V"
    },
    {
      "code": "R580",
      "line": "36",
      "name": "R L",
      "color": "#6597e6",
      "lat": "-33.106530",
      "lon": "-64.322392",
      "stop_name": "Muniz 1305",
      "curso": "3.8746309394",
      "itinerario": "S",
      "client": 98,
      "direction": "V"
    },
    {
      "code": "R576",
      "line": "36",
      "name": "R L",
      "color": "#6597e6",
      "lat": "-33.109317",
      "lon": "-64.325380",
      "stop_name": "Muniz 1005",
      "curso": "3.8746309394",
      "itinerario": "S",
      "client": 98,
      "direction": "V"
    },
    {
      "code": "R575",
      "line": "36",
      "name": "R L",
      "color": "#6597e6",
      "lat": "-33.110652",
      "lon": "-64.326837",
      "stop_name": "Muniz 905",
      "curso": "3.8746309394",
      "itinerario": "S",
      "client": 98,
      "direction": "V"
    },
    {
      "code": "R573",
      "line": "36",
      "name": "R L",
      "color": "#6597e6",
      "lat": "-33.112648",
      "lon": "-64.328965",
      "stop_name": "Muniz 705",
      "curso": "3.8746309394",
      "itinerario": "S",
      "client": 98,
      "direction": "V"
    },
    {
      "code": "R566",
      "line": "36",
      "name": "R L",
      "color": "#6597e6",
      "lat": "-33.114235",
      "lon": "-64.332067",
      "stop_name": "Quirico Porreca 635",
      "curso": "5.4454272662",
      "itinerario": "S",
      "client": 98,
      "direction": "V"
    },
    {
      "code": "R564",
      "line": "36",
      "name": "R L",
      "color": "#6597e6",
      "lat": "-33.114810",
      "lon": "-64.333517",
      "stop_name": "M.S. Thompson 415",
      "curso": "3.8397243544",
      "itinerario": "S",
      "client": 98,
      "direction": "V"
    },
    {
      "code": "R568",
      "line": "36",
      "name": "R L",
      "color": "#6597e6",
      "lat": "-33.116632",
      "lon": "-64.333732",
      "stop_name": "Colombia 690",
      "curso": "2.3038346126",
      "itinerario": "S",
      "client": 98,
      "direction": "V"
    },
    {
      "code": "R489",
      "line": "36",
      "name": "R L",
      "color": "#6597e6",
      "lat": "-33.120590",
      "lon": "-64.337227",
      "stop_name": "Bv. Arturo Illia 940",
      "curso": "1.8151424221",
      "itinerario": "S",
      "client": 98,
      "direction": "V"
    },
    {
      "code": "R487",
      "line": "36",
      "name": "R L",
      "color": "#6597e6",
      "lat": "-33.122033",
      "lon": "-64.335137",
      "stop_name": "Bv. Arturo Illia 1090",
      "curso": "2.4085543678",
      "itinerario": "S",
      "client": 98,
      "direction": "V"
    },
    {
      "code": "R483",
      "line": "36",
      "name": "R L",
      "color": "#6597e6",
      "lat": "-33.123372",
      "lon": "-64.335417",
      "stop_name": "Balcarce 405",
      "curso": "3.4208453339",
      "itinerario": "S",
      "client": 98,
      "direction": "V"
    },
    {
      "code": "R480",
      "line": "36",
      "name": "R L",
      "color": "#6597e6",
      "lat": "-33.122883",
      "lon": "-64.338160",
      "stop_name": "Corrientes 905",
      "curso": "4.9916416607",
      "itinerario": "S",
      "client": 98,
      "direction": "V"
    },
    {
      "code": "R479",
      "line": "36",
      "name": "R L",
      "color": "#6597e6",
      "lat": "-33.122605",
      "lon": "-64.339345",
      "stop_name": "Corrientes 805",
      "curso": "4.9916416607",
      "itinerario": "S",
      "client": 98,
      "direction": "V"
    },
    {
      "code": "R477",
      "line": "36",
      "name": "R L",
      "color": "#6597e6",
      "lat": "-33.122145",
      "lon": "-64.341342",
      "stop_name": "Corrientes 605",
      "curso": "4.9916416607",
      "itinerario": "S",
      "client": 98,
      "direction": "V"
    },
    {
      "code": "R492",
      "line": "36",
      "name": "R L",
      "color": "#6597e6",
      "lat": "-33.120600",
      "lon": "-64.340933",
      "stop_name": "Lavalle 205 (320 VIV)",
      "curso": "0.2792526803",
      "itinerario": "S",
      "client": 98,
      "direction": "V"
    },
    {
      "code": "R491",
      "line": "36",
      "name": "R L",
      "color": "#6597e6",
      "lat": "-33.119922",
      "lon": "-64.343108",
      "stop_name": "Parana 385",
      "curso": "4.9567350757",
      "itinerario": "S",
      "client": 98,
      "direction": "V"
    },
    {
      "code": "R475",
      "line": "36",
      "name": "R L",
      "color": "#6597e6",
      "lat": "-33.120813",
      "lon": "-64.344260",
      "stop_name": "Alberdi 310",
      "curso": "3.4208453339",
      "itinerario": "S",
      "client": 98,
      "direction": "V"
    },
    {
      "code": "R474",
      "line": "36",
      "name": "R L",
      "color": "#6597e6",
      "lat": "-33.122153",
      "lon": "-64.344702",
      "stop_name": "Alberdi 490",
      "curso": "3.4208453339",
      "itinerario": "S",
      "client": 98,
      "direction": "V"
    },
    {
      "code": "R146",
      "line": "36",
      "name": "R L",
      "color": "#6597e6",
      "lat": "-33.123933",
      "lon": "-64.345277",
      "stop_name": "Alberdi 690",
      "curso": "3.4208453339",
      "itinerario": "S",
      "client": 98,
      "direction": "V"
    },
    {
      "code": "R152",
      "line": "36",
      "name": "R L",
      "color": "#6597e6",
      "lat": "-33.124998",
      "lon": "-64.346092",
      "stop_name": "Velez Sarsfield 255",
      "curso": "4.8869219056",
      "itinerario": "S",
      "client": 98,
      "direction": "V"
    },
    {
      "code": "R063",
      "line": "36",
      "name": "R L",
      "color": "#6597e6",
      "lat": "-33.124287",
      "lon": "-64.349198",
      "stop_name": "Buenos Aires 50 PL",
      "curso": "4.9567350757",
      "itinerario": "N",
      "client": 98,
      "direction": "V"
    },
    {
      "code": "R064",
      "line": "36",
      "name": "R L",
      "color": "#6597e6",
      "lat": "-33.123567",
      "lon": "-64.350482",
      "stop_name": "Alvear 755",
      "curso": "0.2094395102",
      "itinerario": "S",
      "client": 98,
      "direction": "V"
    },
    {
      "code": "R062",
      "line": "36",
      "name": "R L",
      "color": "#6597e6",
      "lat": "-33.123150",
      "lon": "-64.348835",
      "stop_name": "San Martin 45 PL",
      "curso": "1.7104226670",
      "itinerario": "S",
      "client": 98,
      "direction": "V"
    }
  ],
  "color": "#f10410",
  "direction": "V",
  "notification": "",
  "notifications": []
}