{
  "route": [
    [
      -64.831815,
      -33.439842,
      3.386
    ],
    [
      -64.831845,
      -33.439945,
      3.386
    ],
    [
      -64.83174,
      -33.440055,
      2.478
    ],
    [
      -64.83162,
      -33.44017,
      2.409
    ],
    [
      -64.831507,
      -33.440293,
      2.478
    ],
    [
      -64.831423,
      -33.44039,
      2.513
    ],
    [
      -64.831423,
      -33.44039,
      1.571
    ],
    [
      -64.831423,
      -33.44039,
      1.571
    ],
    [
      -64.831423,
      -33.44039,
      1.571
    ],
    [
      -64.831423,
      -33.44039,
      1.571
    ],
    [
      -64.831423,
      -33.44039,
      1.571
    ],
    [
      -64.831423,
      -33.44039,
      1.571
    ],
    [
      -64.831423,
      -33.44039,
      1.571
    ],
    [
      -64.831423,
      -33.44039,
      1.571
    ],
    [
      -64.831423,
      -33.44039,
      1.571
    ],
    [
      -64.831423,
      -33.44039,
      1.571
    ],
    [
      -64.831423,
      -33.44039,
      1.571
    ],
    [
      -64.831423,
      -33.44039,
      1.571
    ],
    [
      -64.831423,
      -33.44039,
      1.571
    ],
    [
      -64.831423,
      -33.44039,
      1.571
    ],
    [
      -64.831423,
      -33.44039,
      1.571
    ],
    [
      -64.831423,
      -33.44039,
      1.571
    ],
    [
      -64.831423,
      -33.44039,
      1.571
    ],
    [
      -64.831423,
      -33.44039,
      1.571
    ],
    [
      -64.831423,
      -33.44039,
      1.571
    ],
    [
      -64.831307,
      -33.44053,
      2.548
    ],
    [
      -64.831225,
      -33.440645,
      2.618
    ],
    [
      -64.831225,
      -33.440645,
      1.571
    ],
    [
      -64.831225,
      -33.440645,
      1.571
    ],
    [
      -64.831225,
      -33.440645,
      1.571
    ],
    [
      -64.831225,
      -33.440645,
      1.571
    ],
    [
      -64.831225,
      -33.440645,
      1.571
    ],
    [
      -64.831225,
      -33.440645,
      1.571
    ],
    [
      -64.831225,
      -33.440645,
      1.571
    ],
    [
      -64.831225,
      -33.440645,
      1.571
    ],
    [
      -64.831225,
      -33.440645,
      1.571
    ],
    [
      -64.831225,
      -33.440645,
      1.571
    ],
    [
      -64.831225,
      -33.440645,
      1.571
    ],
    [
      -64.831225,
      -33.440645,
      1.571
    ],
    [
      -64.831225,
      -33.440645,
      1.571
    ],
    [
      -64.831225,
      -33.440645,
      1.571
    ],
    [
      -64.831225,
      -33.440645,
      1.571
    ],
    [
      -64.831225,
      -33.440645,
      1.571
    ],
    [
      -64.831225,
      -33.440645,
      1.571
    ],
    [
      -64.831225,
      -33.440645,
      1.571
    ],
    [
      -64.831208,
      -33.440665,
      2.583
    ],
    [
      -64.830658,
      -33.440585,
      1.396
    ],
    [
      -64.83042,
      -33.440437,
      0.942
    ],
    [
      -64.830078,
      -33.440177,
      0.838
    ],
    [
      -64.829922,
      -33.440207,
      1.78
    ],
    [
      -64.829817,
      -33.440353,
      2.618
    ],
    [
      -64.829413,
      -33.440853,
      2.548
    ],
    [
      -64.82775,
      -33.442458,
      2.443
    ],
    [
      -64.827393,
      -33.442615,
      2.059
    ],
    [
      -64.826857,
      -33.442815,
      1.99
    ],
    [
      -64.826337,
      -33.44308,
      2.129
    ],
    [
      -64.825937,
      -33.443485,
      2.443
    ],
    [
      -64.82575,
      -33.444008,
      2.862
    ],
    [
      -64.825748,
      -33.444585,
      3.142
    ],
    [
      -64.825847,
      -33.45606,
      3.142
    ],
    [
      -64.82577,
      -33.456255,
      2.827
    ],
    [
      -64.825705,
      -33.456312,
      2.374
    ],
    [
      -64.82568,
      -33.456318,
      1.85
    ],
    [
      -64.825452,
      -33.456285,
      1.396
    ],
    [
      -64.82528,
      -33.45617,
      0.908
    ],
    [
      -64.747105,
      -33.405217,
      0.908
    ],
    [
      -64.745738,
      -33.40469,
      1.152
    ],
    [
      -64.745035,
      -33.404293,
      0.977
    ],
    [
      -64.735055,
      -33.39762,
      0.908
    ],
    [
      -64.727097,
      -33.393933,
      1.047
    ],
    [
      -64.72445,
      -33.39223,
      0.908
    ],
    [
      -64.717555,
      -33.389032,
      1.047
    ],
    [
      -64.717493,
      -33.388907,
      0.384
    ],
    [
      -64.717585,
      -33.38877,
      5.76
    ],
    [
      -64.71777,
      -33.388532,
      5.725
    ],
    [
      -64.719605,
      -33.385797,
      5.76
    ],
    [
      -64.71968,
      -33.385702,
      5.69
    ],
    [
      -64.71985,
      -33.385415,
      5.829
    ],
    [
      -64.72108,
      -33.383472,
      5.794
    ],
    [
      -64.72108,
      -33.383472,
      1.571
    ],
    [
      -64.72108,
      -33.383472,
      1.571
    ],
    [
      -64.72108,
      -33.383472,
      1.571
    ],
    [
      -64.72108,
      -33.383472,
      1.571
    ],
    [
      -64.72108,
      -33.383472,
      1.571
    ],
    [
      -64.72108,
      -33.383472,
      1.571
    ],
    [
      -64.72108,
      -33.383472,
      1.571
    ],
    [
      -64.72108,
      -33.383472,
      1.571
    ],
    [
      -64.72108,
      -33.383472,
      1.571
    ],
    [
      -64.72108,
      -33.383472,
      1.571
    ],
    [
      -64.72108,
      -33.383472,
      1.571
    ],
    [
      -64.72108,
      -33.383472,
      1.571
    ],
    [
      -64.72108,
      -33.383472,
      1.571
    ],
    [
      -64.72108,
      -33.383472,
      1.571
    ],
    [
      -64.72108,
      -33.383472,
      1.571
    ],
    [
      -64.72108,
      -33.383472,
      1.571
    ],
    [
      -64.72108,
      -33.383472,
      1.571
    ],
    [
      -64.72108,
      -33.383472,
      1.571
    ],
    [
      -64.721243,
      -33.383227,
      5.76
    ],
    [
      -64.72158,
      -33.382987,
      5.411
    ]
  ],
  "stops": [],
  "color": "#f10410",
  "direction": "V",
  "notification": "",
  "notifications": []
}