{
  "route": [
    [
      -64.308887,
      -33.115962,
      3.211
    ],
    [
      -64.308727,
      -33.113997,
      4.712
    ],
    [
      -64.308498,
      -33.114002,
      4.747
    ],
    [
      -64.30646,
      -33.114085,
      3.176
    ],
    [
      -64.306457,
      -33.113967,
      3.211
    ],
    [
      -64.306335,
      -33.112395,
      3.211
    ],
    [
      -64.306148,
      -33.10947,
      3.211
    ],
    [
      -64.305985,
      -33.107463,
      4.573
    ],
    [
      -64.30557,
      -33.10741,
      5.201
    ],
    [
      -64.305228,
      -33.107557,
      5.166
    ],
    [
      -64.303865,
      -33.108035,
      5.201
    ],
    [
      -64.301113,
      -33.109317,
      5.341
    ],
    [
      -64.300842,
      -33.10948,
      4.328
    ],
    [
      -64.3007,
      -33.109432,
      4.363
    ],
    [
      -64.30054,
      -33.109385,
      3.456
    ],
    [
      -64.300465,
      -33.109192,
      5.096
    ],
    [
      -64.29438,
      -33.111227,
      3.246
    ],
    [
      -64.293137,
      -33.101752,
      3.246
    ],
    [
      -64.292772,
      -33.098955,
      3.246
    ],
    [
      -64.29222,
      -33.094637,
      4.084
    ],
    [
      -64.29204,
      -33.094527,
      4.014
    ],
    [
      -64.29035,
      -33.09335,
      5.62
    ],
    [
      -64.287925,
      -33.095925,
      5.62
    ],
    [
      -64.286443,
      -33.097477,
      5.62
    ],
    [
      -64.285695,
      -33.098288,
      3.979
    ],
    [
      -64.28468,
      -33.09754,
      2.478
    ],
    [
      -64.284758,
      -33.09746,
      2.478
    ],
    [
      -64.286977,
      -33.0951,
      2.478
    ],
    [
      -64.28847,
      -33.093495,
      3.491
    ],
    [
      -64.28844,
      -33.093427,
      4.049
    ],
    [
      -64.286662,
      -33.092268,
      4.049
    ],
    [
      -64.284922,
      -33.091163,
      4.014
    ],
    [
      -64.28347,
      -33.090142,
      4.189
    ],
    [
      -64.28322,
      -33.090022,
      3.107
    ],
    [
      -64.283225,
      -33.0899,
      2.478
    ],
    [
      -64.284433,
      -33.08862,
      2.478
    ],
    [
      -64.285882,
      -33.087085,
      0.908
    ],
    [
      -64.286062,
      -33.087207,
      0.908
    ],
    [
      -64.287573,
      -33.088217,
      0.803
    ],
    [
      -64.288195,
      -33.088702,
      1.257
    ],
    [
      -64.28856,
      -33.088805,
      0.873
    ],
    [
      -64.289468,
      -33.08943,
      2.478
    ],
    [
      -64.29007,
      -33.08879,
      3.246
    ],
    [
      -64.28955,
      -33.084692,
      3.176
    ],
    [
      -64.289475,
      -33.083107,
      1.676
    ],
    [
      -64.293902,
      -33.082765,
      1.71
    ],
    [
      -64.29582,
      -33.08254,
      0
    ],
    [
      -64.295822,
      -33.083627,
      0
    ],
    [
      -64.295867,
      -33.087865,
      4.817
    ],
    [
      -64.29456,
      -33.087982,
      3.281
    ],
    [
      -64.294283,
      -33.086415,
      4.817
    ],
    [
      -64.29367,
      -33.086463,
      3.211
    ],
    [
      -64.29357,
      -33.08541,
      1.676
    ],
    [
      -64.294177,
      -33.085353,
      1.676
    ]
  ],
  "stops": [
    {
      "code": "R539",
      "line": "40",
      "name": "R O",
      "color": "#6597e6",
      "lat": "-33.115962",
      "lon": "-64.308887",
      "stop_name": "Calle 5 695 PL",
      "curso": "3.2114058237",
      "itinerario": "S",
      "client": 98,
      "direction": "I"
    },
    {
      "code": "R541",
      "line": "40",
      "name": "R O",
      "color": "#6597e6",
      "lat": "-33.114002",
      "lon": "-64.308498",
      "stop_name": "Calle 16 95",
      "curso": "4.7472955654",
      "itinerario": "S",
      "client": 98,
      "direction": "I"
    },
    {
      "code": "R542",
      "line": "40",
      "name": "R O",
      "color": "#6597e6",
      "lat": "-33.113967",
      "lon": "-64.306457",
      "stop_name": "Calle 1 545",
      "curso": "3.2114058237",
      "itinerario": "S",
      "client": 98,
      "direction": "I"
    },
    {
      "code": "R545",
      "line": "40",
      "name": "R O",
      "color": "#6597e6",
      "lat": "-33.112395",
      "lon": "-64.306335",
      "stop_name": "Calle 1 435",
      "curso": "3.2114058237",
      "itinerario": "S",
      "client": 98,
      "direction": "I"
    },
    {
      "code": "R547",
      "line": "40",
      "name": "R O",
      "color": "#6597e6",
      "lat": "-33.109470",
      "lon": "-64.306148",
      "stop_name": "Calle 1 205-210",
      "curso": "3.2114058237",
      "itinerario": "S",
      "client": 98,
      "direction": "I"
    },
    {
      "code": "R522",
      "line": "40",
      "name": "R O",
      "color": "#6597e6",
      "lat": "-33.107557",
      "lon": "-64.305228",
      "stop_name": "Rotonda UNRC (a Guardia 1)",
      "curso": "5.1661745859",
      "itinerario": "S",
      "client": 98,
      "direction": "I"
    },
    {
      "code": "R525",
      "line": "40",
      "name": "R O",
      "color": "#6597e6",
      "lat": "-33.108035",
      "lon": "-64.303865",
      "stop_name": "Guardia 2 UNRC",
      "curso": "5.2010811709",
      "itinerario": "S",
      "client": 98,
      "direction": "I"
    },
    {
      "code": "R527",
      "line": "40",
      "name": "R O",
      "color": "#6597e6",
      "lat": "-33.109480",
      "lon": "-64.300842",
      "stop_name": "Parada UNRC - Ramal O",
      "curso": "4.3284165449",
      "itinerario": "S",
      "client": 98,
      "direction": "I"
    },
    {
      "code": "R529",
      "line": "40",
      "name": "R O",
      "color": "#6597e6",
      "lat": "-33.101752",
      "lon": "-64.293137",
      "stop_name": "Tucuman S/N (a Higueras)",
      "curso": "3.2463124087",
      "itinerario": "S",
      "client": 98,
      "direction": "I"
    },
    {
      "code": "R504",
      "line": "40",
      "name": "R O",
      "color": "#6597e6",
      "lat": "-33.098955",
      "lon": "-64.292772",
      "stop_name": "Colegio Castagnari (a Higueras)",
      "curso": "3.2463124087",
      "itinerario": "S",
      "client": 98,
      "direction": "I"
    },
    {
      "code": "R510",
      "line": "40",
      "name": "R O",
      "color": "#6597e6",
      "lat": "-33.094527",
      "lon": "-64.292040",
      "stop_name": "25 de Mayo S/N",
      "curso": "4.0142572796",
      "itinerario": "S",
      "client": 98,
      "direction": "I"
    },
    {
      "code": "R511",
      "line": "40",
      "name": "R O",
      "color": "#6597e6",
      "lat": "-33.093350",
      "lon": "-64.290350",
      "stop_name": "25 de Mayo y Newbery",
      "curso": "5.6199601914",
      "itinerario": "S",
      "client": 98,
      "direction": "I"
    },
    {
      "code": "R507",
      "line": "40",
      "name": "R O",
      "color": "#6597e6",
      "lat": "-33.095925",
      "lon": "-64.287925",
      "stop_name": "Newbery y Carlos Gardel",
      "curso": "5.6199601914",
      "itinerario": "S",
      "client": 98,
      "direction": "I"
    },
    {
      "code": "R505",
      "line": "40",
      "name": "R O",
      "color": "#6597e6",
      "lat": "-33.097477",
      "lon": "-64.286443",
      "stop_name": "Newbery y Sgto Cabral",
      "curso": "5.6199601914",
      "itinerario": "S",
      "client": 98,
      "direction": "I"
    },
    {
      "code": "R506",
      "line": "40",
      "name": "R O",
      "color": "#6597e6",
      "lat": "-33.097460",
      "lon": "-64.284758",
      "stop_name": "San Martin y Juan Magrini",
      "curso": "2.4783675378",
      "itinerario": "S",
      "client": 98,
      "direction": "I"
    },
    {
      "code": "R508",
      "line": "40",
      "name": "R O",
      "color": "#6597e6",
      "lat": "-33.095100",
      "lon": "-64.286977",
      "stop_name": "San Martin y Carlos Gardel",
      "curso": "2.4783675378",
      "itinerario": "S",
      "client": 98,
      "direction": "I"
    },
    {
      "code": "R512",
      "line": "40",
      "name": "R O",
      "color": "#6597e6",
      "lat": "-33.093427",
      "lon": "-64.288440",
      "stop_name": "Sarmiento y San Martin",
      "curso": "4.0491638646",
      "itinerario": "S",
      "client": 98,
      "direction": "I"
    },
    {
      "code": "R514",
      "line": "40",
      "name": "R O",
      "color": "#6597e6",
      "lat": "-33.092268",
      "lon": "-64.286662",
      "stop_name": "Sarmiento y Lavalle",
      "curso": "4.0491638646",
      "itinerario": "S",
      "client": 98,
      "direction": "I"
    },
    {
      "code": "R515",
      "line": "40",
      "name": "R O",
      "color": "#6597e6",
      "lat": "-33.091163",
      "lon": "-64.284922",
      "stop_name": "Antartida Arg y Martin de Guemes",
      "curso": "4.0142572796",
      "itinerario": "S",
      "client": 98,
      "direction": "I"
    },
    {
      "code": "R516",
      "line": "40",
      "name": "R O",
      "color": "#6597e6",
      "lat": "-33.090022",
      "lon": "-64.283220",
      "stop_name": "Antartida Arg y Roca",
      "curso": "3.1066860685",
      "itinerario": "S",
      "client": 98,
      "direction": "I"
    },
    {
      "code": "R519",
      "line": "40",
      "name": "R O",
      "color": "#6597e6",
      "lat": "-33.088620",
      "lon": "-64.284433",
      "stop_name": "Roca e Italia",
      "curso": "2.4783675378",
      "itinerario": "S",
      "client": 98,
      "direction": "I"
    },
    {
      "code": "R520",
      "line": "40",
      "name": "R O",
      "color": "#6597e6",
      "lat": "-33.087207",
      "lon": "-64.286062",
      "stop_name": "Ruta 158 y Roca",
      "curso": "0.9075712110",
      "itinerario": "S",
      "client": 98,
      "direction": "I"
    },
    {
      "code": "R518",
      "line": "40",
      "name": "R O",
      "color": "#6597e6",
      "lat": "-33.088217",
      "lon": "-64.287573",
      "stop_name": "Ruta 158 y Guemes",
      "curso": "0.8028514559",
      "itinerario": "S",
      "client": 98,
      "direction": "I"
    },
    {
      "code": "R003",
      "line": "40",
      "name": "R O",
      "color": "#6597e6",
      "lat": "-33.084692",
      "lon": "-64.289550",
      "stop_name": "Lavalle (N) y JM de la Sota (a Loteo 1)",
      "curso": "3.1764992386",
      "itinerario": "S",
      "client": 98,
      "direction": "I"
    },
    {
      "code": "R501",
      "line": "40",
      "name": "R O",
      "color": "#6597e6",
      "lat": "-33.082765",
      "lon": "-64.293902",
      "stop_name": "Chapanay y Bolten",
      "curso": "1.7104226670",
      "itinerario": "S",
      "client": 98,
      "direction": "I"
    },
    {
      "code": "R502",
      "line": "40",
      "name": "R O",
      "color": "#6597e6",
      "lat": "-33.083627",
      "lon": "-64.295822",
      "stop_name": "Penaloza y Storni",
      "curso": "0.0000000000",
      "itinerario": "S",
      "client": 98,
      "direction": "I"
    },
    {
      "code": "R497",
      "line": "40",
      "name": "R O",
      "color": "#6597e6",
      "lat": "-33.087982",
      "lon": "-64.294560",
      "stop_name": "Consentini y Bolten",
      "curso": "3.2812189937",
      "itinerario": "S",
      "client": 98,
      "direction": "I"
    },
    {
      "code": "R498",
      "line": "40",
      "name": "R O",
      "color": "#6597e6",
      "lat": "-33.086415",
      "lon": "-64.294283",
      "stop_name": "Bolten y Dillon",
      "curso": "4.8171087355",
      "itinerario": "S",
      "client": 98,
      "direction": "I"
    },
    {
      "code": "R499",
      "line": "40",
      "name": "R O",
      "color": "#6597e6",
      "lat": "-33.085353",
      "lon": "-64.294177",
      "stop_name": "Bolten y Mora PL",
      "curso": "1.6755160819",
      "itinerario": "S",
      "client": 98,
      "direction": "I"
    }
  ],
  "color": "#f10410",
  "direction": "I",
  "notification": "",
  "notifications": []
}