{
  "route": [
    [
      -64.43788,
      -33.019757,
      2.548
    ],
    [
      -64.4317,
      -33.027275,
      2.548
    ],
    [
      -64.426805,
      -33.032292,
      2.443
    ],
    [
      -64.426135,
      -33.032735,
      2.234
    ],
    [
      -64.421238,
      -33.03784,
      2.478
    ],
    [
      -64.42148,
      -33.038265,
      3.595
    ],
    [
      -64.424085,
      -33.048328,
      3.351
    ],
    [
      -64.41258,
      -33.05049,
      1.78
    ],
    [
      -64.41236,
      -33.051645,
      2.967
    ],
    [
      -64.412418,
      -33.05476,
      3.142
    ],
    [
      -64.412385,
      -33.055803,
      3.107
    ],
    [
      -64.412017,
      -33.056595,
      2.758
    ],
    [
      -64.410078,
      -33.058867,
      2.513
    ],
    [
      -64.406705,
      -33.062312,
      2.443
    ],
    [
      -64.404127,
      -33.065125,
      2.478
    ],
    [
      -64.397092,
      -33.072412,
      2.478
    ],
    [
      -64.389335,
      -33.0803,
      2.443
    ],
    [
      -64.382237,
      -33.086485,
      2.374
    ],
    [
      -64.37998,
      -33.088405,
      2.374
    ],
    [
      -64.37949,
      -33.088778,
      2.304
    ],
    [
      -64.378575,
      -33.089485,
      2.304
    ],
    [
      -64.377907,
      -33.090195,
      2.478
    ],
    [
      -64.37639,
      -33.09213,
      2.548
    ],
    [
      -64.376048,
      -33.092743,
      2.688
    ],
    [
      -64.375285,
      -33.09299,
      1.955
    ],
    [
      -64.370858,
      -33.092982,
      1.571
    ],
    [
      -64.36689,
      -33.093,
      1.571
    ],
    [
      -64.36605,
      -33.09308,
      1.676
    ],
    [
      -64.36571,
      -33.093297,
      2.234
    ],
    [
      -64.365632,
      -33.09367,
      2.967
    ],
    [
      -64.36557,
      -33.093895,
      2.897
    ],
    [
      -64.36561,
      -33.09425,
      3.246
    ],
    [
      -64.365855,
      -33.095197,
      3.351
    ],
    [
      -64.366025,
      -33.095655,
      3.456
    ]
  ],
  "stops": [
    {
      "code": "R588",
      "line": "52",
      "name": "R Q",
      "color": "#6597e6",
      "lat": "-33.019757",
      "lon": "-64.437880",
      "stop_name": "Tres Acequias PL",
      "curso": "2.5481807079",
      "itinerario": "S",
      "client": 98,
      "direction": "V"
    },
    {
      "code": "R587",
      "line": "52",
      "name": "R Q",
      "color": "#6597e6",
      "lat": "-33.048328",
      "lon": "-64.424085",
      "stop_name": "La Negrita",
      "curso": "3.3510321638",
      "itinerario": "S",
      "client": 98,
      "direction": "V"
    },
    {
      "code": "R469",
      "line": "52",
      "name": "R Q",
      "color": "#6597e6",
      "lat": "-33.088778",
      "lon": "-64.379490",
      "stop_name": "Barrio Las Quintas  PL",
      "curso": "2.3038346126",
      "itinerario": "S",
      "client": 98,
      "direction": "V"
    },
    {
      "code": "R467",
      "line": "52",
      "name": "R Q",
      "color": "#6597e6",
      "lat": "-33.092743",
      "lon": "-64.376048",
      "stop_name": "Camino S/N (a M.Abasto)",
      "curso": "2.6878070481",
      "itinerario": "S",
      "client": 98,
      "direction": "V"
    },
    {
      "code": "R465",
      "line": "52",
      "name": "R Q",
      "color": "#6597e6",
      "lat": "-33.093000",
      "lon": "-64.366890",
      "stop_name": "IPEM 29 (a M.Abasto)",
      "curso": "1.5707963268",
      "itinerario": "S",
      "client": 98,
      "direction": "V"
    },
    {
      "code": "R463",
      "line": "52",
      "name": "R Q",
      "color": "#6597e6",
      "lat": "-33.095655",
      "lon": "-64.366025",
      "stop_name": "Colegio Rivadavia PL",
      "curso": "3.4557519189",
      "itinerario": "S",
      "client": 98,
      "direction": "V"
    }
  ],
  "color": "#f10410",
  "direction": "V",
  "notification": "",
  "notifications": []
}