{
  "route": [
    [
      -64.351415,
      -33.113828,
      4.503
    ],
    [
      -64.351217,
      -33.11352,
      0.663
    ],
    [
      -64.351088,
      -33.113243,
      1.326
    ],
    [
      -64.35096,
      -33.113093,
      0.908
    ],
    [
      -64.35082,
      -33.112933,
      3.037
    ],
    [
      -64.350693,
      -33.112968,
      4.573
    ],
    [
      -64.350642,
      -33.113087,
      6.632
    ],
    [
      -64.350712,
      -33.113233,
      7.156
    ],
    [
      -64.35078,
      -33.113397,
      6.877
    ],
    [
      -64.351397,
      -33.114567,
      6.877
    ],
    [
      -64.351203,
      -33.114945,
      5.376
    ],
    [
      -64.351038,
      -33.11502,
      3.281
    ],
    [
      -64.350798,
      -33.115057,
      3.63
    ],
    [
      -64.349753,
      -33.115275,
      4.259
    ],
    [
      -64.349697,
      -33.115425,
      6.842
    ],
    [
      -64.35032,
      -33.117223,
      6.667
    ],
    [
      -64.350308,
      -33.1173,
      5.306
    ],
    [
      -64.350237,
      -33.117362,
      4.224
    ],
    [
      -64.350032,
      -33.117437,
      3.944
    ],
    [
      -64.349633,
      -33.117562,
      3.735
    ],
    [
      -64.347758,
      -33.117853,
      3.735
    ],
    [
      -64.346998,
      -33.118148,
      3.491
    ],
    [
      -64.339298,
      -33.119442,
      3.7
    ],
    [
      -64.3391,
      -33.119588,
      5.411
    ],
    [
      -64.339023,
      -33.119848,
      5.829
    ],
    [
      -64.338873,
      -33.120297,
      5.445
    ],
    [
      -64.338677,
      -33.120455,
      3.7
    ],
    [
      -64.338392,
      -33.120488,
      3.281
    ],
    [
      -64.338077,
      -33.120595,
      3.491
    ],
    [
      -64.337822,
      -33.120785,
      5.306
    ],
    [
      -64.337752,
      -33.121003,
      6.074
    ],
    [
      -64.337747,
      -33.121083,
      6.248
    ],
    [
      -64.337823,
      -33.121427,
      6.807
    ],
    [
      -64.339915,
      -33.127568,
      7.016
    ],
    [
      -64.340043,
      -33.127915,
      6.807
    ],
    [
      -64.340095,
      -33.12808,
      6.528
    ],
    [
      -64.340122,
      -33.128178,
      6.912
    ],
    [
      -64.340292,
      -33.128607,
      6.737
    ],
    [
      -64.340532,
      -33.129345,
      6.912
    ],
    [
      -64.341067,
      -33.130885,
      6.528
    ],
    [
      -64.34119,
      -33.131205,
      6.772
    ],
    [
      -64.34147,
      -33.13191,
      7.365
    ],
    [
      -64.341733,
      -33.13217,
      7.784
    ],
    [
      -64.342265,
      -33.132653,
      7.959
    ],
    [
      -64.34248,
      -33.13268,
      10.123
    ],
    [
      -64.343122,
      -33.1325,
      9.913
    ],
    [
      -64.343837,
      -33.13233,
      9.704
    ],
    [
      -64.343967,
      -33.132368,
      9.32
    ],
    [
      -64.344013,
      -33.13256,
      8.412
    ],
    [
      -64.344083,
      -33.132778,
      7.784
    ],
    [
      -64.344163,
      -33.133025,
      7.365
    ],
    [
      -64.344237,
      -33.133252,
      6.807
    ],
    [
      -64.345097,
      -33.13563,
      7.295
    ],
    [
      -64.345267,
      -33.135672,
      10.053
    ],
    [
      -64.351583,
      -33.133935,
      10.263
    ],
    [
      -64.351872,
      -33.133868,
      10.088
    ],
    [
      -64.352558,
      -33.133678,
      9.809
    ],
    [
      -64.352593,
      -33.133675,
      9.18
    ],
    [
      -64.352723,
      -33.133752,
      7.435
    ],
    [
      -64.352805,
      -33.133977,
      6.702
    ],
    [
      -64.353125,
      -33.134942,
      6.946
    ],
    [
      -64.353242,
      -33.135307,
      6.702
    ],
    [
      -64.354163,
      -33.138273,
      6.912
    ],
    [
      -64.354303,
      -33.138423,
      8.447
    ],
    [
      -64.35454,
      -33.138495,
      8.866
    ],
    [
      -64.354718,
      -33.13866,
      8.447
    ],
    [
      -64.354728,
      -33.13891,
      7.749
    ],
    [
      -64.354565,
      -33.13914,
      6.877
    ],
    [
      -64.354455,
      -33.139333,
      6.388
    ],
    [
      -64.354518,
      -33.139572,
      6.842
    ],
    [
      -64.355598,
      -33.143013,
      6.667
    ],
    [
      -64.356082,
      -33.144593,
      6.842
    ],
    [
      -64.356658,
      -33.146162,
      6.667
    ],
    [
      -64.357783,
      -33.149733,
      6.842
    ],
    [
      -64.358588,
      -33.15195,
      8.029
    ],
    [
      -64.358963,
      -33.152157,
      8.308
    ],
    [
      -64.374563,
      -33.160357,
      7.819
    ],
    [
      -64.374642,
      -33.160477,
      7.051
    ],
    [
      -64.374695,
      -33.160603,
      7.33
    ],
    [
      -64.374865,
      -33.160763,
      8.098
    ],
    [
      -64.375732,
      -33.161233,
      8.308
    ],
    [
      -64.377268,
      -33.162075,
      8.133
    ],
    [
      -64.378723,
      -33.1631,
      7.924
    ],
    [
      -64.38291,
      -33.166238,
      8.098
    ],
    [
      -64.40091,
      -33.179703,
      7.924
    ],
    [
      -64.414815,
      -33.190225,
      7.924
    ],
    [
      -64.416842,
      -33.191772,
      7.714
    ],
    [
      -64.417177,
      -33.192157,
      7.365
    ],
    [
      -64.41741,
      -33.192595,
      6.912
    ],
    [
      -64.418223,
      -33.19488,
      7.191
    ],
    [
      -64.418573,
      -33.195303,
      7.749
    ],
    [
      -64.419048,
      -33.195633,
      8.203
    ],
    [
      -64.430065,
      -33.201942,
      7.959
    ],
    [
      -64.430415,
      -33.202248,
      7.714
    ],
    [
      -64.430688,
      -33.202555,
      7.47
    ],
    [
      -64.430903,
      -33.202853,
      7.295
    ],
    [
      -64.43107,
      -33.203152,
      7.086
    ],
    [
      -64.432297,
      -33.20593,
      7.295
    ],
    [
      -64.432557,
      -33.206225,
      7.54
    ],
    [
      -64.432987,
      -33.206538,
      7.749
    ],
    [
      -64.433158,
      -33.206623,
      7.749
    ],
    [
      -64.433378,
      -33.206702,
      8.063
    ],
    [
      -64.433547,
      -33.206765,
      8.273
    ],
    [
      -64.440088,
      -33.210357,
      7.854
    ],
    [
      -64.44016,
      -33.21042,
      7.679
    ],
    [
      -64.440682,
      -33.210798,
      8.517
    ],
    [
      -64.441042,
      -33.21099,
      8.063
    ],
    [
      -64.441433,
      -33.21115,
      8.901
    ],
    [
      -64.441913,
      -33.211302,
      8.343
    ],
    [
      -64.442392,
      -33.211577,
      8.133
    ],
    [
      -64.443453,
      -33.212372,
      7.784
    ],
    [
      -64.458293,
      -33.225512,
      7.959
    ],
    [
      -64.459083,
      -33.226017,
      8.238
    ],
    [
      -64.46019,
      -33.226538,
      8.412
    ],
    [
      -64.498202,
      -33.243752,
      8.692
    ],
    [
      -64.49969,
      -33.24413,
      8.866
    ],
    [
      -64.50236,
      -33.244797,
      8.657
    ],
    [
      -64.503267,
      -33.245162,
      8.378
    ],
    [
      -64.504095,
      -33.245623,
      8.063
    ],
    [
      -64.504835,
      -33.246203,
      7.784
    ],
    [
      -64.508643,
      -33.249942,
      7.959
    ],
    [
      -64.509653,
      -33.2506,
      8.168
    ],
    [
      -64.511288,
      -33.251683,
      7.994
    ],
    [
      -64.53177,
      -33.266115,
      8.168
    ],
    [
      -64.531982,
      -33.266222,
      7.924
    ],
    [
      -64.532157,
      -33.26637,
      7.54
    ],
    [
      -64.532437,
      -33.266592,
      7.749
    ],
    [
      -64.532992,
      -33.266968,
      7.994
    ],
    [
      -64.572805,
      -33.294323,
      8.482
    ],
    [
      -64.57307,
      -33.29428,
      10.751
    ],
    [
      -64.573295,
      -33.294025,
      11.24
    ],
    [
      -64.57406,
      -33.29322,
      11.065
    ],
    [
      -64.580523,
      -33.286803,
      11.554
    ],
    [
      -64.580503,
      -33.28665,
      1.326
    ],
    [
      -64.580255,
      -33.286525,
      2.094
    ],
    [
      -64.579898,
      -33.286322,
      1.815
    ],
    [
      -64.576723,
      -33.284193,
      1.815
    ],
    [
      -64.576475,
      -33.284017,
      1.431
    ],
    [
      -64.576435,
      -33.283888,
      12.392
    ],
    [
      -64.57654,
      -33.283748,
      10.996
    ],
    [
      -64.576952,
      -33.283368,
      11.17
    ],
    [
      -64.578415,
      -33.281835,
      10.821
    ],
    [
      -64.578578,
      -33.281797,
      9.25
    ],
    [
      -64.578712,
      -33.281868,
      7.854
    ],
    [
      -64.578978,
      -33.282085,
      8.029
    ],
    [
      -64.581372,
      -33.283725,
      7.645
    ],
    [
      -64.581397,
      -33.283758,
      7.086
    ],
    [
      -64.581405,
      -33.283833,
      5.829
    ],
    [
      -64.58131,
      -33.283957,
      4.608
    ],
    [
      -64.581083,
      -33.284145,
      4.817
    ],
    [
      -64.579408,
      -33.285918,
      5.061
    ],
    [
      -64.579388,
      -33.285992,
      6.458
    ],
    [
      -64.579435,
      -33.286052,
      8.063
    ],
    [
      -64.579605,
      -33.28613,
      8.412
    ],
    [
      -64.579882,
      -33.286283,
      8.098
    ],
    [
      -64.580487,
      -33.286707,
      7.714
    ],
    [
      -64.580508,
      -33.286858,
      5.515
    ],
    [
      -64.580358,
      -33.28702,
      4.817
    ],
    [
      -64.578652,
      -33.288657,
      4.643
    ],
    [
      -64.577852,
      -33.289312,
      4.817
    ],
    [
      -64.573017,
      -33.294315,
      5.271
    ],
    [
      -64.573027,
      -33.294557,
      7.121
    ],
    [
      -64.573315,
      -33.2948,
      8.029
    ],
    [
      -64.585017,
      -33.302925,
      7.854
    ],
    [
      -64.58853,
      -33.305878,
      8.029
    ],
    [
      -64.605952,
      -33.3178,
      8.238
    ],
    [
      -64.609715,
      -33.319877,
      8.063
    ],
    [
      -64.696822,
      -33.379623,
      8.273
    ],
    [
      -64.698217,
      -33.38026,
      8.447
    ],
    [
      -64.712853,
      -33.386848,
      8.657
    ],
    [
      -64.716608,
      -33.388577,
      8.412
    ],
    [
      -64.717447,
      -33.388933,
      8.587
    ],
    [
      -64.717605,
      -33.388958,
      9.879
    ],
    [
      -64.71765,
      -33.38889,
      12.043
    ],
    [
      -64.717715,
      -33.388725,
      11.449
    ],
    [
      -64.718208,
      -33.387983,
      11.764
    ],
    [
      -64.718322,
      -33.387785,
      11.554
    ],
    [
      -64.719142,
      -33.386488,
      11.764
    ],
    [
      -64.71926,
      -33.386248,
      11.589
    ],
    [
      -64.721115,
      -33.383433,
      11.589
    ],
    [
      -64.7213,
      -33.383158,
      10.891
    ],
    [
      -64.721382,
      -33.383148,
      8.901
    ],
    [
      -64.721575,
      -33.383192,
      9.111
    ],
    [
      -64.721615,
      -33.383145,
      9.634
    ],
    [
      -64.721917,
      -33.382998,
      0.279
    ],
    [
      -64.721872,
      -33.382945,
      1.71
    ],
    [
      -64.721733,
      -33.382898,
      2.723
    ],
    [
      -64.721518,
      -33.382852,
      2.548
    ],
    [
      -64.721408,
      -33.382798,
      1.466
    ],
    [
      -64.721055,
      -33.3826,
      1.71
    ],
    [
      -64.720777,
      -33.38248,
      1.885
    ],
    [
      -64.720515,
      -33.382363,
      2.094
    ],
    [
      -64.720365,
      -33.382342,
      3.665
    ],
    [
      -64.72027,
      -33.382425,
      5.725
    ],
    [
      -64.720092,
      -33.382748,
      5.55
    ],
    [
      -64.719783,
      -33.383288,
      5.201
    ],
    [
      -64.719022,
      -33.38437,
      5.794
    ],
    [
      -64.718983,
      -33.384443,
      5.585
    ],
    [
      -64.718875,
      -33.384623,
      5.411
    ],
    [
      -64.718435,
      -33.38535,
      5.201
    ],
    [
      -64.716385,
      -33.38848,
      5.515
    ],
    [
      -64.716415,
      -33.388577,
      7.4
    ],
    [
      -64.71661,
      -33.388653,
      8.727
    ],
    [
      -64.716925,
      -33.388768,
      8.482
    ],
    [
      -64.72253,
      -33.391242,
      8.657
    ],
    [
      -64.723033,
      -33.39146,
      8.168
    ],
    [
      -64.723755,
      -33.39182,
      8.447
    ],
    [
      -64.724793,
      -33.392312,
      8.273
    ],
    [
      -64.72531,
      -33.392637,
      8.063
    ],
    [
      -64.727485,
      -33.394063,
      8.308
    ],
    [
      -64.729795,
      -33.395293,
      7.47
    ],
    [
      -64.729802,
      -33.395462,
      5.655
    ],
    [
      -64.729645,
      -33.395665,
      5.096
    ],
    [
      -64.729317,
      -33.396167,
      5.306
    ],
    [
      -64.72008,
      -33.411083,
      5.515
    ],
    [
      -64.718793,
      -33.414358,
      5.725
    ],
    [
      -64.71804,
      -33.417252,
      5.934
    ],
    [
      -64.717598,
      -33.420423,
      6.144
    ],
    [
      -64.717493,
      -33.424315,
      6.353
    ],
    [
      -64.717693,
      -33.425908,
      6.562
    ],
    [
      -64.719332,
      -33.434485,
      6.388
    ],
    [
      -64.719328,
      -33.435633,
      6.178
    ],
    [
      -64.719163,
      -33.436998,
      5.969
    ],
    [
      -64.718783,
      -33.438565,
      5.76
    ],
    [
      -64.718287,
      -33.439875,
      5.515
    ],
    [
      -64.717833,
      -33.440715,
      5.341
    ],
    [
      -64.682133,
      -33.496158,
      5.061
    ],
    [
      -64.67898,
      -33.499853,
      5.236
    ],
    [
      -64.678122,
      -33.50119,
      4.782
    ],
    [
      -64.677935,
      -33.50126,
      3.56
    ],
    [
      -64.677818,
      -33.50128,
      3.91
    ],
    [
      -64.677762,
      -33.501328,
      5.306
    ],
    [
      -64.677727,
      -33.501442,
      5.725
    ],
    [
      -64.677705,
      -33.501483,
      5.48
    ],
    [
      -64.676158,
      -33.503792,
      4.189
    ],
    [
      -64.67605,
      -33.503807,
      3.037
    ],
    [
      -64.675893,
      -33.503763,
      2.025
    ],
    [
      -64.675613,
      -33.50362,
      2.025
    ],
    [
      -64.674843,
      -33.50326,
      2.409
    ],
    [
      -64.67473,
      -33.50327,
      4.224
    ],
    [
      -64.674632,
      -33.503365,
      5.515
    ],
    [
      -64.674503,
      -33.503645,
      5.341
    ],
    [
      -64.674095,
      -33.504348,
      6.039
    ],
    [
      -64.674173,
      -33.50444,
      8.517
    ],
    [
      -64.67436,
      -33.504487,
      8.727
    ],
    [
      -64.674418,
      -33.504507,
      8.447
    ],
    [
      -64.675453,
      -33.504928,
      8.657
    ],
    [
      -64.675565,
      -33.504962,
      8.866
    ],
    [
      -64.675677,
      -33.505028,
      8.657
    ],
    [
      -64.6756,
      -33.505177,
      5.027
    ],
    [
      -64.675442,
      -33.50538,
      5.236
    ],
    [
      -64.672175,
      -33.510503,
      5.411
    ],
    [
      -64.669202,
      -33.51578,
      5.201
    ],
    [
      -64.601458,
      -33.611665,
      4.992
    ],
    [
      -64.601118,
      -33.61207,
      5.341
    ],
    [
      -64.600972,
      -33.612463,
      5.69
    ],
    [
      -64.600757,
      -33.612833,
      5.096
    ],
    [
      -64.599902,
      -33.614033,
      5.341
    ],
    [
      -64.597798,
      -33.617028,
      5.131
    ],
    [
      -64.597312,
      -33.617727,
      5.306
    ],
    [
      -64.597025,
      -33.618135,
      5.096
    ],
    [
      -64.596912,
      -33.618212,
      3.665
    ],
    [
      -64.596778,
      -33.61819,
      1.85
    ],
    [
      -64.596472,
      -33.617983,
      2.025
    ],
    [
      -64.596243,
      -33.617902,
      3.037
    ],
    [
      -64.596067,
      -33.617998,
      5.061
    ],
    [
      -64.595915,
      -33.618243,
      5.236
    ],
    [
      -64.591607,
      -33.624425,
      5.725
    ],
    [
      -64.591698,
      -33.624563,
      8.273
    ],
    [
      -64.592272,
      -33.624813,
      8.029
    ],
    [
      -64.592378,
      -33.624878,
      8.238
    ],
    [
      -64.592527,
      -33.624943,
      8.447
    ],
    [
      -64.592673,
      -33.625,
      8.273
    ],
    [
      -64.592755,
      -33.625043,
      8.063
    ],
    [
      -64.592943,
      -33.625122,
      8.657
    ],
    [
      -64.593123,
      -33.625093,
      11.17
    ],
    [
      -64.5932,
      -33.624927,
      11.694
    ],
    [
      -64.593265,
      -33.624818,
      11.449
    ],
    [
      -64.593925,
      -33.623885,
      11.449
    ],
    [
      -64.595288,
      -33.621922,
      11.764
    ],
    [
      -64.59533,
      -33.621865,
      11.484
    ],
    [
      -64.595942,
      -33.620987,
      11.484
    ]
  ],
  "stops": [
    {
      "code": "ENTE",
      "line": "2",
      "name": "",
      "color": "#000000",
      "lat": "-33.114567",
      "lon": "-64.351397",
      "stop_name": "Entrada Terminal",
      "curso": "6.8765972529",
      "itinerario": "S",
      "client": 98,
      "direction": "I"
    },
    {
      "code": "C105",
      "line": "2",
      "name": "",
      "color": "#000000",
      "lat": "-33.117853",
      "lon": "-64.347758",
      "stop_name": "NO",
      "curso": "3.7350045993",
      "itinerario": "S",
      "client": 98,
      "direction": "I"
    },
    {
      "code": "HOCS",
      "line": "2",
      "name": "",
      "color": "#000000",
      "lat": "-33.190225",
      "lon": "-64.414815",
      "stop_name": "Cambio de Sentido Holmberg ",
      "curso": "7.9237948041",
      "itinerario": "S",
      "client": 98,
      "direction": "I"
    }
  ],
  "color": "#f10410",
  "direction": "I",
  "notification": "",
  "notifications": []
}