{
  "route": [
    [
      -64.355617,
      -33.17813,
      0
    ],
    [
      -64.35563,
      -33.166833,
      0
    ],
    [
      -64.355833,
      -33.16671,
      5.341
    ],
    [
      -64.35638,
      -33.16644,
      5.236
    ],
    [
      -64.35812,
      -33.16644,
      4.712
    ],
    [
      -64.35848,
      -33.166275,
      5.201
    ],
    [
      -64.358895,
      -33.165905,
      5.515
    ],
    [
      -64.35902,
      -33.16559,
      5.969
    ],
    [
      -64.358948,
      -33.165262,
      0.175
    ],
    [
      -64.358945,
      -33.163445,
      0
    ],
    [
      -64.35896,
      -33.160148,
      0
    ],
    [
      -64.358982,
      -33.158112,
      0
    ],
    [
      -64.35901,
      -33.157955,
      6.109
    ],
    [
      -64.35568,
      -33.157588,
      1.431
    ],
    [
      -64.355672,
      -33.156,
      0
    ],
    [
      -64.35569,
      -33.155875,
      6.144
    ],
    [
      -64.352083,
      -33.155882,
      1.571
    ],
    [
      -64.35196,
      -33.155875,
      1.501
    ],
    [
      -64.351968,
      -33.154685,
      0
    ],
    [
      -64.352287,
      -33.154575,
      5.096
    ],
    [
      -64.352333,
      -33.15455,
      5.271
    ],
    [
      -64.352197,
      -33.154095,
      0.244
    ],
    [
      -64.351528,
      -33.151935,
      0.244
    ],
    [
      -64.351488,
      -33.151802,
      0.244
    ],
    [
      -64.354538,
      -33.151105,
      4.992
    ],
    [
      -64.357832,
      -33.1504,
      4.957
    ],
    [
      -64.357702,
      -33.1501,
      0.349
    ]
  ],
  "stops": [
    {
      "code": "R385",
      "line": "53",
      "name": "R P",
      "color": "#6597e6",
      "lat": "-33.178130",
      "lon": "-64.355617",
      "stop_name": "Juan Manuel Fangio 5955",
      "curso": "0.0000000000",
      "itinerario": "S",
      "client": 98,
      "direction": "V"
    },
    {
      "code": "R383",
      "line": "53",
      "name": "R P",
      "color": "#6597e6",
      "lat": "-33.165262",
      "lon": "-64.358948",
      "stop_name": " Av. Amadeo Sabatini 4325",
      "curso": "0.1745329252",
      "itinerario": "S",
      "client": 98,
      "direction": "V"
    },
    {
      "code": "R381",
      "line": "53",
      "name": "R P",
      "color": "#6597e6",
      "lat": "-33.163445",
      "lon": "-64.358945",
      "stop_name": "Av. Amadeo Sabatini 4235",
      "curso": "0.0000000000",
      "itinerario": "S",
      "client": 98,
      "direction": "V"
    },
    {
      "code": "R379",
      "line": "53",
      "name": "R P",
      "color": "#6597e6",
      "lat": "-33.160148",
      "lon": "-64.358960",
      "stop_name": "Av. Amadeo Sabatini 4015",
      "curso": "0.0000000000",
      "itinerario": "S",
      "client": 98,
      "direction": "V"
    },
    {
      "code": "R377",
      "line": "53",
      "name": "R P",
      "color": "#6597e6",
      "lat": "-33.158112",
      "lon": "-64.358982",
      "stop_name": "Av. Amadeo Sabatini y Ruta 8",
      "curso": "0.0000000000",
      "itinerario": "S",
      "client": 98,
      "direction": "V"
    },
    {
      "code": "R373",
      "line": "53",
      "name": "R P",
      "color": "#6597e6",
      "lat": "-33.156000",
      "lon": "-64.355672",
      "stop_name": "Laguna Leuvuco y Quaranta (Dispensario N14)",
      "curso": "0.0000000000",
      "itinerario": "S",
      "client": 98,
      "direction": "V"
    },
    {
      "code": "R368",
      "line": "53",
      "name": "R P",
      "color": "#6597e6",
      "lat": "-33.155882",
      "lon": "-64.352083",
      "stop_name": " Fray Ludovico Quaranta 290",
      "curso": "1.5707963268",
      "itinerario": "S",
      "client": 98,
      "direction": "V"
    },
    {
      "code": "R366",
      "line": "53",
      "name": "R P",
      "color": "#6597e6",
      "lat": "-33.154095",
      "lon": "-64.352197",
      "stop_name": "Sarmiento 3275",
      "curso": "0.2443460953",
      "itinerario": "S",
      "client": 98,
      "direction": "V"
    },
    {
      "code": "R393",
      "line": "53",
      "name": "R P",
      "color": "#6597e6",
      "lat": "-33.151935",
      "lon": "-64.351528",
      "stop_name": "Sarmiento 3105 PL",
      "curso": "0.2443460953",
      "itinerario": "N",
      "client": 98,
      "direction": "V"
    },
    {
      "code": "R390",
      "line": "53",
      "name": "R P",
      "color": "#6597e6",
      "lat": "-33.151105",
      "lon": "-64.354538",
      "stop_name": "Gral. Mosconi 105",
      "curso": "4.9916416607",
      "itinerario": "S",
      "client": 98,
      "direction": "V"
    },
    {
      "code": "R356",
      "line": "53",
      "name": "R P",
      "color": "#6597e6",
      "lat": "-33.150100",
      "lon": "-64.357702",
      "stop_name": " Av. Amadeo Sabatini 3085",
      "curso": "0.3490658504",
      "itinerario": "S",
      "client": 98,
      "direction": "V"
    }
  ],
  "color": "#f10410",
  "direction": "V",
  "notification": "",
  "notifications": []
}