{
  "route": [
    [
      -64.303303,
      -33.10827,
      5.236
    ],
    [
      -64.304263,
      -33.107863,
      5.236
    ],
    [
      -64.305408,
      -33.107377,
      5.201
    ],
    [
      -64.305782,
      -33.107263,
      5.061
    ],
    [
      -64.305597,
      -33.107002,
      0.524
    ],
    [
      -64.305967,
      -33.106815,
      5.271
    ],
    [
      -64.309113,
      -33.105535,
      5.166
    ],
    [
      -64.310152,
      -33.104557,
      5.55
    ],
    [
      -64.310507,
      -33.104315,
      5.411
    ],
    [
      -64.310735,
      -33.103885,
      5.864
    ],
    [
      -64.311778,
      -33.102402,
      5.76
    ],
    [
      -64.312415,
      -33.101595,
      5.69
    ],
    [
      -64.314675,
      -33.09975,
      5.48
    ],
    [
      -64.317437,
      -33.097652,
      5.445
    ],
    [
      -64.319742,
      -33.095912,
      5.445
    ],
    [
      -64.321833,
      -33.094302,
      5.445
    ],
    [
      -64.323022,
      -33.093337,
      5.48
    ],
    [
      -64.323152,
      -33.093083,
      5.864
    ],
    [
      -64.323317,
      -33.093032,
      5.061
    ],
    [
      -64.323457,
      -33.09309,
      4.259
    ],
    [
      -64.323493,
      -33.09321,
      3.386
    ],
    [
      -64.324395,
      -33.094057,
      3.875
    ],
    [
      -64.326608,
      -33.096092,
      3.875
    ],
    [
      -64.328787,
      -33.098088,
      3.875
    ],
    [
      -64.330983,
      -33.10016,
      3.875
    ],
    [
      -64.333107,
      -33.102087,
      3.875
    ],
    [
      -64.335667,
      -33.104487,
      3.875
    ],
    [
      -64.336683,
      -33.105378,
      3.91
    ],
    [
      -64.337723,
      -33.10637,
      3.875
    ],
    [
      -64.340083,
      -33.10856,
      3.875
    ],
    [
      -64.34188,
      -33.110227,
      3.875
    ],
    [
      -64.342512,
      -33.110767,
      3.91
    ],
    [
      -64.345962,
      -33.113033,
      4.049
    ],
    [
      -64.346608,
      -33.113532,
      3.979
    ],
    [
      -64.346632,
      -33.114087,
      3.176
    ],
    [
      -64.34731,
      -33.11597,
      3.421
    ],
    [
      -64.347425,
      -33.116513,
      3.316
    ],
    [
      -64.347835,
      -33.116638,
      4.363
    ],
    [
      -64.347808,
      -33.117042,
      3.107
    ],
    [
      -64.347673,
      -33.117202,
      2.513
    ],
    [
      -64.347845,
      -33.117718,
      3.421
    ],
    [
      -64.347983,
      -33.118313,
      3.351
    ],
    [
      -64.348072,
      -33.118625,
      3.386
    ],
    [
      -64.348087,
      -33.118927,
      3.176
    ],
    [
      -64.348267,
      -33.11958,
      3.351
    ],
    [
      -64.348795,
      -33.121258,
      3.386
    ],
    [
      -64.349377,
      -33.12312,
      3.386
    ],
    [
      -64.348835,
      -33.12315,
      1.885
    ]
  ],
  "stops": [
    {
      "code": "R526",
      "line": "51",
      "name": "T D",
      "color": "#ff0000",
      "lat": "-33.108270",
      "lon": "-64.303303",
      "stop_name": "Guardia 1 UNRC PL",
      "curso": "5.2359877560",
      "itinerario": "S",
      "client": 98,
      "direction": "V"
    },
    {
      "code": "R524",
      "line": "51",
      "name": "T D",
      "color": "#ff0000",
      "lat": "-33.107863",
      "lon": "-64.304263",
      "stop_name": "Guardia 2 UNRC (a Centro)",
      "curso": "5.2359877560",
      "itinerario": "S",
      "client": 98,
      "direction": "V"
    },
    {
      "code": "R523",
      "line": "51",
      "name": "T D",
      "color": "#ff0000",
      "lat": "-33.107377",
      "lon": "-64.305408",
      "stop_name": "Rotonda UNRC (a Centro)",
      "curso": "5.2010811709",
      "itinerario": "S",
      "client": 98,
      "direction": "V"
    },
    {
      "code": "R521",
      "line": "51",
      "name": "T D",
      "color": "#ff0000",
      "lat": "-33.106815",
      "lon": "-64.305967",
      "stop_name": "Ruta 36 frente a Pucara",
      "curso": "5.2708943410",
      "itinerario": "S",
      "client": 98,
      "direction": "V"
    },
    {
      "code": "R595",
      "line": "51",
      "name": "T D",
      "color": "#ff0000",
      "lat": "-33.103885",
      "lon": "-64.310735",
      "stop_name": "Guatemala y L. Blanca (a Centro)",
      "curso": "5.8643062867",
      "itinerario": "S",
      "client": 98,
      "direction": "V"
    },
    {
      "code": "R593",
      "line": "51",
      "name": "T D",
      "color": "#ff0000",
      "lat": "-33.102402",
      "lon": "-64.311778",
      "stop_name": "Guatemala 965",
      "curso": "5.7595865316",
      "itinerario": "S",
      "client": 98,
      "direction": "V"
    },
    {
      "code": "R591",
      "line": "51",
      "name": "T D",
      "color": "#ff0000",
      "lat": "-33.099750",
      "lon": "-64.314675",
      "stop_name": "Guatemala y Muniz (a R. Seminario)",
      "curso": "5.4803338513",
      "itinerario": "S",
      "client": 98,
      "direction": "V"
    },
    {
      "code": "R718",
      "line": "51",
      "name": "T D",
      "color": "#ff0000",
      "lat": "-33.097652",
      "lon": "-64.317437",
      "stop_name": "Guatemala y Segurola (a R. Seminario)",
      "curso": "5.4454272662",
      "itinerario": "S",
      "client": 98,
      "direction": "V"
    },
    {
      "code": "R716",
      "line": "51",
      "name": "T D",
      "color": "#ff0000",
      "lat": "-33.095912",
      "lon": "-64.319742",
      "stop_name": "Guatemala y San Luis (a R. Seminario)",
      "curso": "5.4454272662",
      "itinerario": "S",
      "client": 98,
      "direction": "V"
    },
    {
      "code": "R714",
      "line": "51",
      "name": "T D",
      "color": "#ff0000",
      "lat": "-33.094302",
      "lon": "-64.321833",
      "stop_name": "Guatemala y Jujuy (a R.Seminario)",
      "curso": "5.4454272662",
      "itinerario": "S",
      "client": 98,
      "direction": "V"
    },
    {
      "code": "R712",
      "line": "51",
      "name": "T D",
      "color": "#ff0000",
      "lat": "-33.094057",
      "lon": "-64.324395",
      "stop_name": " MT de Alvear 1915",
      "curso": "3.8746309394",
      "itinerario": "S",
      "client": 98,
      "direction": "V"
    },
    {
      "code": "R711",
      "line": "51",
      "name": "T D",
      "color": "#ff0000",
      "lat": "-33.096092",
      "lon": "-64.326608",
      "stop_name": " MT de Alvear 1715",
      "curso": "3.8746309394",
      "itinerario": "S",
      "client": 98,
      "direction": "V"
    },
    {
      "code": "R709",
      "line": "51",
      "name": "T D",
      "color": "#ff0000",
      "lat": "-33.098088",
      "lon": "-64.328787",
      "stop_name": "  MT de Alvear 1515",
      "curso": "3.8746309394",
      "itinerario": "S",
      "client": 98,
      "direction": "V"
    },
    {
      "code": "R705",
      "line": "51",
      "name": "T D",
      "color": "#ff0000",
      "lat": "-33.100160",
      "lon": "-64.330983",
      "stop_name": " MT de Alvear 1305",
      "curso": "3.8746309394",
      "itinerario": "S",
      "client": 98,
      "direction": "V"
    },
    {
      "code": "R695",
      "line": "51",
      "name": "T D",
      "color": "#ff0000",
      "lat": "-33.102087",
      "lon": "-64.333107",
      "stop_name": "MT de Alvear 1115",
      "curso": "3.8746309394",
      "itinerario": "S",
      "client": 98,
      "direction": "V"
    },
    {
      "code": "R685",
      "line": "51",
      "name": "T D",
      "color": "#ff0000",
      "lat": "-33.104487",
      "lon": "-64.335667",
      "stop_name": "MT de Alvear 895",
      "curso": "3.8746309394",
      "itinerario": "S",
      "client": 98,
      "direction": "V"
    },
    {
      "code": "R682",
      "line": "51",
      "name": "T D",
      "color": "#ff0000",
      "lat": "-33.106370",
      "lon": "-64.337723",
      "stop_name": "MT de Alvear 695",
      "curso": "3.8746309394",
      "itinerario": "S",
      "client": 98,
      "direction": "V"
    },
    {
      "code": "R609",
      "line": "51",
      "name": "T D",
      "color": "#ff0000",
      "lat": "-33.108560",
      "lon": "-64.340083",
      "stop_name": "MT de Alvear 485",
      "curso": "3.8746309394",
      "itinerario": "S",
      "client": 98,
      "direction": "V"
    },
    {
      "code": "R606",
      "line": "51",
      "name": "T D",
      "color": "#ff0000",
      "lat": "-33.110227",
      "lon": "-64.341880",
      "stop_name": " MT de Alvear 305",
      "curso": "3.8746309394",
      "itinerario": "S",
      "client": 98,
      "direction": "V"
    },
    {
      "code": "R230",
      "line": "51",
      "name": "T D",
      "color": "#ff0000",
      "lat": "-33.115970",
      "lon": "-64.347310",
      "stop_name": "Av. Espana 299",
      "curso": "3.4208453339",
      "itinerario": "S",
      "client": 98,
      "direction": "V"
    },
    {
      "code": "R228",
      "line": "51",
      "name": "T D",
      "color": "#ff0000",
      "lat": "-33.117718",
      "lon": "-64.347845",
      "stop_name": "Av. Espana 115",
      "curso": "3.4208453339",
      "itinerario": "S",
      "client": 98,
      "direction": "V"
    },
    {
      "code": "R223",
      "line": "51",
      "name": "T D",
      "color": "#ff0000",
      "lat": "-33.119580",
      "lon": "-64.348267",
      "stop_name": "Constitucion 290",
      "curso": "3.3510321638",
      "itinerario": "S",
      "client": 98,
      "direction": "V"
    },
    {
      "code": "R221",
      "line": "51",
      "name": "T D",
      "color": "#ff0000",
      "lat": "-33.121258",
      "lon": "-64.348795",
      "stop_name": "Constitucion 490",
      "curso": "3.3859387489",
      "itinerario": "S",
      "client": 98,
      "direction": "V"
    },
    {
      "code": "R062",
      "line": "51",
      "name": "T D",
      "color": "#ff0000",
      "lat": "-33.123150",
      "lon": "-64.348835",
      "stop_name": "San Martin 45 PL",
      "curso": "1.8849555922",
      "itinerario": "S",
      "client": 98,
      "direction": "V"
    }
  ],
  "color": "#f10410",
  "direction": "V",
  "notification": "",
  "notifications": []
}