{
  "route": [
    [
      -64.33117,
      -33.10011,
      3.072
    ],
    [
      -64.331147,
      -33.100343,
      3.072
    ],
    [
      -64.33212,
      -33.10119,
      3.91
    ],
    [
      -64.333133,
      -33.100448,
      5.445
    ],
    [
      -64.333258,
      -33.100363,
      5.376
    ],
    [
      -64.33216,
      -33.099265,
      0.698
    ],
    [
      -64.333102,
      -33.098593,
      5.411
    ],
    [
      -64.335817,
      -33.096522,
      5.445
    ],
    [
      -64.338045,
      -33.094848,
      5.445
    ],
    [
      -64.33816,
      -33.094725,
      5.62
    ],
    [
      -64.339167,
      -33.095618,
      3.91
    ],
    [
      -64.339253,
      -33.095765,
      3.595
    ],
    [
      -64.341007,
      -33.094418,
      5.445
    ],
    [
      -64.341672,
      -33.093902,
      5.445
    ],
    [
      -64.34076,
      -33.09302,
      0.733
    ],
    [
      -64.340305,
      -33.092462,
      0.489
    ],
    [
      -64.33769,
      -33.092478,
      1.571
    ],
    [
      -64.335493,
      -33.092502,
      1.571
    ],
    [
      -64.331657,
      -33.092523,
      1.571
    ],
    [
      -64.328558,
      -33.092522,
      1.571
    ],
    [
      -64.327215,
      -33.0925,
      1.536
    ],
    [
      -64.32723,
      -33.092325,
      6.213
    ],
    [
      -64.327697,
      -33.092332,
      4.677
    ],
    [
      -64.32773,
      -33.090652,
      0
    ],
    [
      -64.327932,
      -33.090622,
      4.887
    ],
    [
      -64.328295,
      -33.090585,
      4.817
    ],
    [
      -64.32925,
      -33.089768,
      5.515
    ],
    [
      -64.329695,
      -33.089505,
      5.341
    ],
    [
      -64.331252,
      -33.089508,
      4.712
    ],
    [
      -64.333107,
      -33.089483,
      4.712
    ],
    [
      -64.336055,
      -33.089475,
      4.712
    ],
    [
      -64.338777,
      -33.089488,
      4.712
    ],
    [
      -64.33995,
      -33.089468,
      4.747
    ],
    [
      -64.340355,
      -33.089543,
      4.503
    ],
    [
      -64.340365,
      -33.092238,
      3.142
    ],
    [
      -64.340635,
      -33.092313,
      4.398
    ],
    [
      -64.343012,
      -33.092322,
      4.712
    ],
    [
      -64.347605,
      -33.092323,
      4.712
    ],
    [
      -64.350365,
      -33.092417,
      4.677
    ],
    [
      -64.353103,
      -33.09236,
      4.747
    ],
    [
      -64.353503,
      -33.09244,
      4.468
    ],
    [
      -64.353553,
      -33.092827,
      3.246
    ],
    [
      -64.35355,
      -33.094173,
      3.142
    ],
    [
      -64.353575,
      -33.097173,
      3.142
    ],
    [
      -64.35354,
      -33.09767,
      3.072
    ],
    [
      -64.351895,
      -33.099057,
      2.374
    ],
    [
      -64.349493,
      -33.100892,
      2.304
    ],
    [
      -64.348393,
      -33.1017,
      2.304
    ],
    [
      -64.346698,
      -33.103022,
      2.304
    ],
    [
      -64.344278,
      -33.104895,
      2.304
    ],
    [
      -64.34225,
      -33.106437,
      2.304
    ],
    [
      -64.34214,
      -33.106543,
      2.443
    ],
    [
      -64.341045,
      -33.105498,
      0.733
    ],
    [
      -64.339928,
      -33.106342,
      2.304
    ],
    [
      -64.33871,
      -33.107197,
      2.269
    ],
    [
      -64.339725,
      -33.108215,
      3.84
    ],
    [
      -64.340035,
      -33.108095,
      5.131
    ]
  ],
  "stops": [
    {
      "code": "R706",
      "line": "47",
      "name": "R J",
      "color": "#6597e6",
      "lat": "-33.100110",
      "lon": "-64.331170",
      "stop_name": "Mozart 15 PL",
      "curso": "3.0717794835",
      "itinerario": "S",
      "client": 98,
      "direction": "V"
    },
    {
      "code": "R701",
      "line": "47",
      "name": "R J",
      "color": "#6597e6",
      "lat": "-33.100448",
      "lon": "-64.333133",
      "stop_name": "Peru 90",
      "curso": "5.4454272662",
      "itinerario": "S",
      "client": 98,
      "direction": "V"
    },
    {
      "code": "R703",
      "line": "47",
      "name": "R J",
      "color": "#6597e6",
      "lat": "-33.098593",
      "lon": "-64.333102",
      "stop_name": " Mozart 190",
      "curso": "5.4105206812",
      "itinerario": "S",
      "client": 98,
      "direction": "V"
    },
    {
      "code": "R699",
      "line": "47",
      "name": "R J",
      "color": "#6597e6",
      "lat": "-33.096522",
      "lon": "-64.335817",
      "stop_name": "Mozart 410",
      "curso": "5.4454272662",
      "itinerario": "S",
      "client": 98,
      "direction": "V"
    },
    {
      "code": "R679",
      "line": "47",
      "name": "R J",
      "color": "#6597e6",
      "lat": "-33.094848",
      "lon": "-64.338045",
      "stop_name": "Mozart 580",
      "curso": "5.4454272662",
      "itinerario": "S",
      "client": 98,
      "direction": "V"
    },
    {
      "code": "R676",
      "line": "47",
      "name": "R J",
      "color": "#6597e6",
      "lat": "-33.095618",
      "lon": "-64.339167",
      "stop_name": "Eduardo Jenner 1215",
      "curso": "3.9095375245",
      "itinerario": "S",
      "client": 98,
      "direction": "V"
    },
    {
      "code": "R675",
      "line": "47",
      "name": "R J",
      "color": "#6597e6",
      "lat": "-33.094418",
      "lon": "-64.341007",
      "stop_name": "Peru 760",
      "curso": "5.4454272662",
      "itinerario": "N",
      "client": 98,
      "direction": "V"
    },
    {
      "code": "R668",
      "line": "47",
      "name": "R J",
      "color": "#6597e6",
      "lat": "-33.093020",
      "lon": "-64.340760",
      "stop_name": "Payro 1350 IPV",
      "curso": "0.7330382858",
      "itinerario": "S",
      "client": 98,
      "direction": "V"
    },
    {
      "code": "R666",
      "line": "47",
      "name": "R J",
      "color": "#6597e6",
      "lat": "-33.092478",
      "lon": "-64.337690",
      "stop_name": "Bv. Bouteler y Taborda",
      "curso": "1.5707963268",
      "itinerario": "S",
      "client": 98,
      "direction": "V"
    },
    {
      "code": "R663",
      "line": "47",
      "name": "R J",
      "color": "#6597e6",
      "lat": "-33.092502",
      "lon": "-64.335493",
      "stop_name": "Bv. Bouteler pasando Jenner",
      "curso": "1.5707963268",
      "itinerario": "S",
      "client": 98,
      "direction": "V"
    },
    {
      "code": "R661",
      "line": "47",
      "name": "R J",
      "color": "#6597e6",
      "lat": "-33.092523",
      "lon": "-64.331657",
      "stop_name": "Bv. Bouteler y Paul Harris",
      "curso": "1.5707963268",
      "itinerario": "S",
      "client": 98,
      "direction": "V"
    },
    {
      "code": "R642",
      "line": "47",
      "name": "R J",
      "color": "#6597e6",
      "lat": "-33.092522",
      "lon": "-64.328558",
      "stop_name": "Bv. Bouteler pasando Berutti",
      "curso": "1.5707963268",
      "itinerario": "S",
      "client": 98,
      "direction": "V"
    },
    {
      "code": "R644",
      "line": "47",
      "name": "R J",
      "color": "#6597e6",
      "lat": "-33.090622",
      "lon": "-64.327932",
      "stop_name": "Vuelta de Obligado 250",
      "curso": "4.8869219056",
      "itinerario": "S",
      "client": 98,
      "direction": "V"
    },
    {
      "code": "R647",
      "line": "47",
      "name": "R J",
      "color": "#6597e6",
      "lat": "-33.089768",
      "lon": "-64.329250",
      "stop_name": "Alacalufes (a 17 de Octubre)",
      "curso": "5.5152404363",
      "itinerario": "S",
      "client": 98,
      "direction": "V"
    },
    {
      "code": "R649",
      "line": "47",
      "name": "R J",
      "color": "#6597e6",
      "lat": "-33.089508",
      "lon": "-64.331252",
      "stop_name": "17 de Octubre y Aymaras (a Cardarelli)",
      "curso": "4.7123889804",
      "itinerario": "S",
      "client": 98,
      "direction": "V"
    },
    {
      "code": "R651",
      "line": "47",
      "name": "R J",
      "color": "#6597e6",
      "lat": "-33.089483",
      "lon": "-64.333107",
      "stop_name": "17 de Octubre y Yamanas (a Cardarelli)",
      "curso": "4.7123889804",
      "itinerario": "S",
      "client": 98,
      "direction": "V"
    },
    {
      "code": "R653",
      "line": "47",
      "name": "R J",
      "color": "#6597e6",
      "lat": "-33.089475",
      "lon": "-64.336055",
      "stop_name": "17 de Octubre y Araucanos (a Cardarelli)",
      "curso": "4.7123889804",
      "itinerario": "S",
      "client": 98,
      "direction": "V"
    },
    {
      "code": "R655",
      "line": "47",
      "name": "R J",
      "color": "#6597e6",
      "lat": "-33.089488",
      "lon": "-64.338777",
      "stop_name": "17 de Octubre y Pampas (a Cardarelli)",
      "curso": "4.7123889804",
      "itinerario": "S",
      "client": 98,
      "direction": "V"
    },
    {
      "code": "R657",
      "line": "47",
      "name": "R J",
      "color": "#6597e6",
      "lat": "-33.089543",
      "lon": "-64.340355",
      "stop_name": "Cardarelli 2285",
      "curso": "4.5029494701",
      "itinerario": "S",
      "client": 98,
      "direction": "V"
    },
    {
      "code": "R659",
      "line": "47",
      "name": "R J",
      "color": "#6597e6",
      "lat": "-33.092238",
      "lon": "-64.340365",
      "stop_name": "Cardarelli 2105",
      "curso": "3.1415926536",
      "itinerario": "S",
      "client": 98,
      "direction": "V"
    },
    {
      "code": "R670",
      "line": "47",
      "name": "R J",
      "color": "#6597e6",
      "lat": "-33.092322",
      "lon": "-64.343012",
      "stop_name": "Bv. Bouteler 910",
      "curso": "4.7123889804",
      "itinerario": "S",
      "client": 98,
      "direction": "V"
    },
    {
      "code": "R621",
      "line": "47",
      "name": "R J",
      "color": "#6597e6",
      "lat": "-33.092323",
      "lon": "-64.347605",
      "stop_name": " Bv. Bouteler 1150",
      "curso": "4.7123889804",
      "itinerario": "S",
      "client": 98,
      "direction": "V"
    },
    {
      "code": "R639",
      "line": "47",
      "name": "R J",
      "color": "#6597e6",
      "lat": "-33.092417",
      "lon": "-64.350365",
      "stop_name": "Bv. Bouteler 1300",
      "curso": "4.6774823953",
      "itinerario": "S",
      "client": 98,
      "direction": "V"
    },
    {
      "code": "R634",
      "line": "47",
      "name": "R J",
      "color": "#6597e6",
      "lat": "-33.092827",
      "lon": "-64.353553",
      "stop_name": "Tierra del Fuego 855",
      "curso": "3.2463124087",
      "itinerario": "S",
      "client": 98,
      "direction": "V"
    },
    {
      "code": "R633",
      "line": "47",
      "name": "R J",
      "color": "#6597e6",
      "lat": "-33.094173",
      "lon": "-64.353550",
      "stop_name": "Tierra del Fuego 755",
      "curso": "3.1415926536",
      "itinerario": "S",
      "client": 98,
      "direction": "V"
    },
    {
      "code": "R630",
      "line": "47",
      "name": "R J",
      "color": "#6597e6",
      "lat": "-33.097173",
      "lon": "-64.353575",
      "stop_name": "Tierra del Fuego 515",
      "curso": "3.1415926536",
      "itinerario": "S",
      "client": 98,
      "direction": "V"
    },
    {
      "code": "R629",
      "line": "47",
      "name": "R J",
      "color": "#6597e6",
      "lat": "-33.099057",
      "lon": "-64.351895",
      "stop_name": " Isabel La Catolica 1005",
      "curso": "2.3736477827",
      "itinerario": "S",
      "client": 98,
      "direction": "V"
    },
    {
      "code": "R627",
      "line": "47",
      "name": "R J",
      "color": "#6597e6",
      "lat": "-33.100892",
      "lon": "-64.349493",
      "stop_name": "Isabel La Catolica 815",
      "curso": "2.3038346126",
      "itinerario": "S",
      "client": 98,
      "direction": "V"
    },
    {
      "code": "R624",
      "line": "47",
      "name": "R J",
      "color": "#6597e6",
      "lat": "-33.101700",
      "lon": "-64.348393",
      "stop_name": "Isabel la Catolica 735",
      "curso": "2.3038346126",
      "itinerario": "S",
      "client": 98,
      "direction": "V"
    },
    {
      "code": "R622",
      "line": "47",
      "name": "R J",
      "color": "#6597e6",
      "lat": "-33.103022",
      "lon": "-64.346698",
      "stop_name": " Isabel la Catolica 585",
      "curso": "2.3038346126",
      "itinerario": "S",
      "client": 98,
      "direction": "V"
    },
    {
      "code": "R615",
      "line": "47",
      "name": "R J",
      "color": "#6597e6",
      "lat": "-33.104895",
      "lon": "-64.344278",
      "stop_name": " Isabel la Catolica 395",
      "curso": "2.3038346126",
      "itinerario": "S",
      "client": 98,
      "direction": "V"
    },
    {
      "code": "R614",
      "line": "47",
      "name": "R J",
      "color": "#6597e6",
      "lat": "-33.106437",
      "lon": "-64.342250",
      "stop_name": "Isabel la Catolica 205-210",
      "curso": "2.3038346126",
      "itinerario": "S",
      "client": 98,
      "direction": "V"
    },
    {
      "code": "R612",
      "line": "47",
      "name": "R J",
      "color": "#6597e6",
      "lat": "-33.106342",
      "lon": "-64.339928",
      "stop_name": "Antartida Arg. 105",
      "curso": "2.3038346126",
      "itinerario": "S",
      "client": 98,
      "direction": "V"
    },
    {
      "code": "R610",
      "line": "47",
      "name": "R J",
      "color": "#6597e6",
      "lat": "-33.108095",
      "lon": "-64.340035",
      "stop_name": "Isabel la Catolica 10 PT-CS PL",
      "curso": "5.1312680009",
      "itinerario": "S",
      "client": 98,
      "direction": "V"
    }
  ],
  "color": "#f10410",
  "direction": "V",
  "notification": "",
  "notifications": []
}